:10000000C69027CE40274FC90E0DCD793C0E0AC3AE
:10001000793C3A0300E603C21F3DDB01C3263DFEE7
:1000200001C22D3DDB05E6013E00C02FC9FE023EA8
:10003000FFCA2A3DC31830C5065405C23A3DC1C99E
:100040000E307D936F7C9A67DA4F3D0CC3423D19A9
:1000500079FE30C25A3D48C38F3E0630C3573D0E2D
:1000600042CD8F3E06087E07F53E001717C64E4F5D
:10007000CD8F3EF105C2673D0E46CD8F3E0E20C3AB
:100080008F3E210000CD863F47CD283EDA983D299E
:10009000292929B56FC3853DE3E578CD603ED2A619
:1000A0003D0DC2673CC9C2673C0DC2823DC90E010D
:1000B000210000C3883D237CB537C87B957A9CC955
:1000C000CD003DC3793C3A0300C9E521030071E14D
:1000D000C97CCDD93D7DC3D93DF50F0F0F0FE60F7C
:1000E000CDC03DF1E60FC3C03D063C0E00CD8F3EB6
:1000F00005C2EB3DC93A0300E6C0CA983CFE40CABF
:00000001FF