:100000009430C36B32215933C30E32215533CD7036
:1000100030CDA530CD5930C3DA307AE6380F4F21D4
:10002000353309CD7030C33A32213133CD7030CD04
:10003000A530CD59300E2CCD94307AE607CD59300D
:10004000C3DA307987874F21153309CD7030C39CCF
:1000500031CD503057CD5030CD80307ACD8030C941
:100060007987874F21ED3209CD70300E30CD943035
:10007000CD5030CD80300E48CD9430C3DA30798702
:10008000874F21A93209CD7030C3DA3000070F172E
:100090001F272F373F76C9E3E9EBF3F9FBC6CED331
:1000A000D6DBDEE6EEF6FE222A323AC3CD45492003
:1000B000205350484C444920205843484750434817
:1000C0004C5854484C52455420484C5420434D43BE
:1000D0002053544320434D4120444141205241523A
:1000E0002052414C2052524320524C43204E4F50FC
:1000F00020435049204F52492058524920414E49EF
:00000001FF