:1000000053340B78A7C2FF33C1D1E1C3EE342104CE
:1000100000347ED3FFC1D1E1E5D5C57E2FD303796E
:100020002FD302782F07070707E630F640D30100E9
:1000300000F680D301CD5334E670D30103CD3638BA
:10004000D21B343E00D301265ACD533425C2493445
:10005000C3F433D51E4E1DC25634D1C9782F0707BD
:100060000707E630D301792FD302DB022FC9CD4831
:1000700038F5CD4838FE2CC22A38F1FE32CA27386E
:10008000FE34C28B3411FF01C39334FE38C22A38C8
:1000900011FF03D50E01CD3338CD3038D1E1010049
:1000A0000019EB3E1ED301CD5C3477BEC22A380363
:1000B000CD3638D2A734C31E38CD4838F5CD4838B0
:1000C000FE2CC22A38F1FE32CA2138FE34C2D634A0
:1000D00011FF01C3DE34FE38C22A3811FF03D50EEA
:1000E00001CD3338CD3038D1E119EB0100003E307D
:1000F000D301CD5C34BEC4063503CD3638D2F234DC
:00000001FF