:100000003EC3DA3EDB03B7E1C9E1FE08CA0630C3EE
:100010000930CDB73EDA673CE67FC9E5D5C5F5CDF9
:10002000133EEB210A00390604EB2B722B73D1052A
:10003000C22A3FC10BF9211400397E9123C2453FEA
:100040007E90CA533F23237E91C2523F237E90CAA3
:10005000533F03210F00397323722323712370C58B
:100060000E2ACD793CE1CDD13D2114003916024E46
:100070003600234636002379B0CA7E3F7E02231520
:10008000C26F3FC39838CDD43CE67FC54FCD793C95
:1000900079C1C943FCA33F52F3AB3F50CFB33F4CB0
:1000A0003FBB3F540043014202310354005004312E
:1000B00008320C540050103120323054004340318B
:1000C0008032C0D1C1F1E1F9FB210000C300000082
:1000D0000000000000410501420301430201440108
:1000E000014500014604014810014C0F014D10026A
:1000F000501302530702FF7B38000000000000008D
:00000001FF
