:100000002053424920494E2020535549204F5554F2
:1000100020414349204144492043414C4C4A4D50E2
:10002000204C444120535441204C484C4453484CAC
:10003000444D4F56204144442041444320535542AF
:100040002053424220414E4120585241204F5241BC
:1000500020434D5020494E5220444352204D564992
:10006000204C58492053544158494E58204441444B
:10007000204C444158444358205253542050535725
:1000800020504F5020505553484E5A5A204E43430B
:1000900020504F504550204D20CD4838F5CD4838A0
:1000A000FE2CC22A38F1FE320E02CA2438FE34CAAF
:1000B000B733FE38C22A380E03CD3338CD30383E40
:1000C00030D3013E00320400D3FFC1D1E1E5D5C5F4
:1000D000CD5C34AEA6C2E73303CD3638D2D033C3BD
:1000E000F433CD5C34AEA6C4033503CD3638D2E24A
:1000F00033C32A383A0400FE64C20E3401FF04CD33
:00000001FF