v 20130925 2
C 40000 40000 0 0 0 title-B.sym
C 42900 43000 1 0 0 megahdr2x18-1.sym
{
T 43600 49300 5 10 1 1 0 0 1
device=MEGAHDR2X18
T 43600 49100 5 10 1 1 0 0 1
footprint=HEADER36_1
T 43600 49500 5 10 1 1 0 0 1
refdes=J1
}
C 42400 48800 1 0 0 5V-plus-1.sym
C 45500 48800 1 0 0 5V-plus-1.sym
C 52900 50600 1 0 0 5V-plus-1.sym
C 42500 42800 1 0 0 gnd-1.sym
C 45600 42800 1 0 0 gnd-1.sym
C 53000 41500 1 0 0 gnd-1.sym
N 53100 50500 53100 50600 4
N 53100 41900 53100 41800 4
N 45400 43400 45700 43400 4
N 45700 43400 45700 43100 4
N 42600 43100 42600 43400 4
N 42600 43400 42900 43400 4
N 42600 48800 42600 48500 4
N 42600 48500 42900 48500 4
N 45400 48500 45700 48500 4
N 45700 48500 45700 48800 4
C 47400 40800 1 90 0 capacitor-1.sym
{
T 46700 41000 5 10 0 0 90 0 1
device=CAPACITOR
T 47500 41400 5 10 1 1 0 0 1
refdes=C1
T 46500 41000 5 10 0 0 90 0 1
symversion=0.1
T 47500 41200 5 10 1 1 0 0 1
value=100NF
T 47500 41000 5 10 1 1 0 0 1
footprint=0805
}
C 48600 40800 1 90 0 capacitor-1.sym
{
T 47900 41000 5 10 0 0 90 0 1
device=CAPACITOR
T 48700 41400 5 10 1 1 0 0 1
refdes=C2
T 47700 41000 5 10 0 0 90 0 1
symversion=0.1
T 48700 41200 5 10 1 1 0 0 1
value=100NF
T 48700 41000 5 10 1 1 0 0 1
footprint=0805
}
C 47000 41900 1 0 0 5V-plus-1.sym
C 47100 40300 1 0 0 gnd-1.sym
C 48300 40300 1 0 0 gnd-1.sym
N 47200 40800 47200 40600 4
N 48400 40800 48400 40600 4
N 47200 41900 47200 41700 4
N 48400 41700 48400 41800 4
N 48400 41800 47200 41800 4
U 41300 49000 41300 46200 10 1
N 42900 48200 41500 48200 4
{
T 41700 48200 5 10 1 1 0 0 1
netname=A0
}
C 41500 48200 1 90 0 busripper-1.sym
{
T 41100 48200 5 8 0 0 90 0 1
device=none
}
N 42900 47900 41500 47900 4
{
T 41700 47900 5 10 1 1 0 0 1
netname=A2
}
C 41500 47900 1 90 0 busripper-1.sym
{
T 41100 47900 5 8 0 0 90 0 1
device=none
}
N 42900 47600 41500 47600 4
{
T 41700 47600 5 10 1 1 0 0 1
netname=A4
}
C 41500 47600 1 90 0 busripper-1.sym
{
T 41100 47600 5 8 0 0 90 0 1
device=none
}
N 42900 47300 41500 47300 4
{
T 41700 47300 5 10 1 1 0 0 1
netname=A6
}
C 41500 47300 1 90 0 busripper-1.sym
{
T 41100 47300 5 8 0 0 90 0 1
device=none
}
U 41300 49000 40400 49000 10 0
{
T 40400 49100 5 10 1 1 0 0 1
netname=ADDR
}
U 47000 46200 47000 49000 10 1
U 47000 49000 47900 49000 10 0
{
T 47400 49100 5 10 1 1 0 0 1
netname=ADDR
}
N 45400 47300 46800 47300 4
{
T 46400 47300 5 10 1 1 0 0 1
netname=A7
}
C 46800 47300 1 0 0 busripper-1.sym
{
T 46800 47700 5 8 0 0 0 0 1
device=none
}
N 45400 47600 46800 47600 4
{
T 46400 47600 5 10 1 1 0 0 1
netname=A5
}
C 46800 47600 1 0 0 busripper-1.sym
{
T 46800 48000 5 8 0 0 0 0 1
device=none
}
N 45400 47900 46800 47900 4
{
T 46400 47900 5 10 1 1 0 0 1
netname=A3
}
C 46800 47900 1 0 0 busripper-1.sym
{
T 46800 48300 5 8 0 0 0 0 1
device=none
}
N 45400 48200 46800 48200 4
{
T 46400 48200 5 10 1 1 0 0 1
netname=A1
}
C 46800 48200 1 0 0 busripper-1.sym
{
T 46800 48600 5 8 0 0 0 0 1
device=none
}
N 42900 46100 41500 46100 4
{
T 41700 46100 5 10 1 1 0 0 1
netname=A9
}
C 41500 46100 1 90 0 busripper-1.sym
{
T 41100 46100 5 8 0 0 90 0 1
device=none
}
N 42900 46400 41500 46400 4
{
T 41700 46400 5 10 1 1 0 0 1
netname=A11
}
C 41500 46400 1 90 0 busripper-1.sym
{
T 41100 46400 5 8 0 0 90 0 1
device=none
}
N 42900 46700 41500 46700 4
{
T 41700 46700 5 10 1 1 0 0 1
netname=A13
}
C 41500 46700 1 90 0 busripper-1.sym
{
T 41100 46700 5 8 0 0 90 0 1
device=none
}
N 42900 47000 41500 47000 4
{
T 41700 47000 5 10 1 1 0 0 1
netname=A15
}
C 41500 47000 1 90 0 busripper-1.sym
{
T 41100 47000 5 8 0 0 90 0 1
device=none
}
N 45400 46100 46800 46100 4
{
T 46400 46100 5 10 1 1 0 0 1
netname=A8
}
C 46800 46100 1 0 0 busripper-1.sym
{
T 46800 46500 5 8 0 0 0 0 1
device=none
}
N 45400 46400 46800 46400 4
{
T 46400 46400 5 10 1 1 0 0 1
netname=A10
}
C 46800 46400 1 0 0 busripper-1.sym
{
T 46800 46800 5 8 0 0 0 0 1
device=none
}
N 45400 46700 46800 46700 4
{
T 46400 46700 5 10 1 1 0 0 1
netname=A12
}
C 46800 46700 1 0 0 busripper-1.sym
{
T 46800 47100 5 8 0 0 0 0 1
device=none
}
N 45400 47000 46800 47000 4
{
T 46400 47000 5 10 1 1 0 0 1
netname=A14
}
C 46800 47000 1 0 0 busripper-1.sym
{
T 46800 47400 5 8 0 0 0 0 1
device=none
}
N 42900 45500 41700 45500 4
{
T 41700 45500 5 10 1 1 0 0 1
netname=\_WR\_
}
N 46600 45800 45400 45800 4
{
T 46200 45800 5 10 1 1 0 0 1
netname=\_IORQ\_
}
N 46600 45500 45400 45500 4
{
T 46200 45500 5 10 1 1 0 0 1
netname=\_MREQ\_
}
N 42900 45800 41700 45800 4
{
T 41700 45800 5 10 1 1 0 0 1
netname=\_RESET\_
}
U 41300 45500 40400 45500 10 0
{
T 40400 45600 5 10 1 1 0 0 1
netname=DATA
}
U 41300 45500 41300 44000 10 -1
N 42900 45200 41500 45200 4
{
T 41700 45200 5 10 1 1 0 0 1
netname=D7
}
C 41500 45200 1 180 0 busripper-1.sym
{
T 41500 44800 5 8 0 0 180 0 1
device=none
}
N 42900 44900 41500 44900 4
{
T 41700 44900 5 10 1 1 0 0 1
netname=D5
}
C 41500 44900 1 180 0 busripper-1.sym
{
T 41500 44500 5 8 0 0 180 0 1
device=none
}
N 42900 44600 41500 44600 4
{
T 41700 44600 5 10 1 1 0 0 1
netname=D3
}
C 41500 44600 1 180 0 busripper-1.sym
{
T 41500 44200 5 8 0 0 180 0 1
device=none
}
N 42900 44300 41500 44300 4
{
T 41700 44300 5 10 1 1 0 0 1
netname=D1
}
C 41500 44300 1 180 0 busripper-1.sym
{
T 41500 43900 5 8 0 0 180 0 1
device=none
}
U 47900 45500 47000 45500 10 0
{
T 47400 45600 5 10 1 1 0 0 1
netname=DATA
}
U 47000 45500 47000 44000 10 -1
N 45400 45200 46800 45200 4
{
T 46400 45200 5 10 1 1 0 0 1
netname=D6
}
C 46800 45200 1 270 0 busripper-1.sym
{
T 47200 45200 5 8 0 0 270 0 1
device=none
}
N 45400 44900 46800 44900 4
{
T 46400 44900 5 10 1 1 0 0 1
netname=D4
}
C 46800 44900 1 270 0 busripper-1.sym
{
T 47200 44900 5 8 0 0 270 0 1
device=none
}
N 45400 44600 46800 44600 4
{
T 46400 44600 5 10 1 1 0 0 1
netname=D2
}
C 46800 44600 1 270 0 busripper-1.sym
{
T 47200 44600 5 8 0 0 270 0 1
device=none
}
N 45400 44300 46800 44300 4
{
T 46400 44300 5 10 1 1 0 0 1
netname=D0
}
C 46800 44300 1 270 0 busripper-1.sym
{
T 47200 44300 5 8 0 0 270 0 1
device=none
}
N 42900 44000 41700 44000 4
{
T 41700 44000 5 10 1 1 0 0 1
netname=\_INT\_
}
N 46600 44000 45400 44000 4
{
T 46300 44000 5 10 1 1 0 0 1
netname=\_NMI\_
}
N 51400 48800 50200 48800 4
{
T 50200 48800 5 10 1 1 0 0 1
netname=CLK
}
N 51400 48200 50200 48200 4
{
T 50200 48200 5 10 1 1 0 0 1
netname=\_RESET\_
}
N 51400 47600 50200 47600 4
{
T 50200 47600 5 10 1 1 0 0 1
netname=\_INT\_
}
N 51400 47900 50200 47900 4
{
T 50200 47900 5 10 1 1 0 0 1
netname=\_NMI\_
}
C 41500 43600 1 0 0 resistor-1.sym
{
T 41800 44000 5 10 0 0 0 0 1
device=RESISTOR
T 41600 43400 5 10 1 1 0 0 1
refdes=R1
T 41600 43200 5 10 1 1 0 0 1
value=33
T 41900 43200 5 10 1 1 0 0 1
footprint=0805
}
N 42400 43700 42900 43700 4
{
T 41900 43700 5 10 0 1 0 0 1
netname=CLK_E_R
}
N 40600 43700 41500 43700 4
{
T 40600 43700 5 10 1 1 0 0 1
netname=CLK
}
T 50100 40700 9 16 1 0 0 0 1
Z80 RETRO SHIELD FOR ARDUINO MEGA
T 49500 41000 9 10 1 0 0 0 2
Released under the Creative Commons Attribution Share-Alike 4.0 License
https://creativecommons.org/licenses/by-sa/4.0/
T 54000 40100 9 10 1 0 0 0 1
ERTURK KOCALAR
T 54000 40400 9 10 1 0 0 0 1
REV A - 2019/01/27
T 50900 40100 9 10 1 0 0 0 1
1
T 51600 40100 9 10 1 0 0 0 1
1
T 50800 40400 9 10 1 0 0 0 1
KZ80.SCH
U 49800 46300 48900 46300 10 0
{
T 48900 46400 5 10 1 1 0 0 1
netname=DATA
}
U 49800 46300 49800 43700 10 -1
N 51400 46100 50000 46100 4
{
T 50200 46100 5 10 1 1 0 0 1
netname=D7
}
C 50000 46100 1 180 0 busripper-1.sym
{
T 50000 45700 5 8 0 0 180 0 1
device=none
}
N 51400 45800 50000 45800 4
{
T 50200 45800 5 10 1 1 0 0 1
netname=D6
}
C 50000 45800 1 180 0 busripper-1.sym
{
T 50000 45400 5 8 0 0 180 0 1
device=none
}
N 51400 45500 50000 45500 4
{
T 50200 45500 5 10 1 1 0 0 1
netname=D5
}
C 50000 45500 1 180 0 busripper-1.sym
{
T 50000 45100 5 8 0 0 180 0 1
device=none
}
N 51400 45200 50000 45200 4
{
T 50200 45200 5 10 1 1 0 0 1
netname=D4
}
C 50000 45200 1 180 0 busripper-1.sym
{
T 50000 44800 5 8 0 0 180 0 1
device=none
}
N 51400 44900 50000 44900 4
{
T 50200 44900 5 10 1 1 0 0 1
netname=D3
}
C 50000 44900 1 180 0 busripper-1.sym
{
T 50000 44500 5 8 0 0 180 0 1
device=none
}
N 51400 44600 50000 44600 4
{
T 50200 44600 5 10 1 1 0 0 1
netname=D2
}
C 50000 44600 1 180 0 busripper-1.sym
{
T 50000 44200 5 8 0 0 180 0 1
device=none
}
N 51400 44300 50000 44300 4
{
T 50200 44300 5 10 1 1 0 0 1
netname=D1
}
C 50000 44300 1 180 0 busripper-1.sym
{
T 50000 43900 5 8 0 0 180 0 1
device=none
}
N 51400 44000 50000 44000 4
{
T 50200 44000 5 10 1 1 0 0 1
netname=D0
}
C 50000 44000 1 180 0 busripper-1.sym
{
T 50000 43600 5 8 0 0 180 0 1
device=none
}
N 55900 44200 54700 44200 4
{
T 55300 44200 5 10 1 1 0 0 1
netname=\_RD\_
}
C 55100 41900 1 0 0 resistor-1.sym
{
T 55400 42300 5 10 0 0 0 0 1
device=RESISTOR
T 55200 41700 5 10 1 1 0 0 1
refdes=R3
T 55200 41500 5 10 1 1 0 0 1
value=680
T 55600 41500 5 10 1 1 0 0 1
footprint=0805
}
C 56000 43200 1 270 0 led-1.sym
{
T 56600 42400 5 10 0 0 270 0 1
device=LED
T 56500 43000 5 10 1 1 0 0 1
refdes=LED1
T 56800 42400 5 10 0 0 270 0 1
symversion=0.1
T 56000 43200 5 10 0 0 0 0 1
footprint=LED3
}
T 56500 42800 9 10 1 0 0 0 1
RED
U 56300 45500 56300 50700 10 1
U 56300 50700 56800 50700 10 0
{
T 56300 50800 5 10 1 1 0 0 1
netname=ADDR
}
N 54700 49000 56100 49000 4
{
T 55700 49000 5 10 1 1 0 0 1
netname=A12
}
C 56100 49000 1 0 0 busripper-1.sym
{
T 56100 49400 5 8 0 0 0 0 1
device=none
}
N 54700 49300 56100 49300 4
{
T 55700 49300 5 10 1 1 0 0 1
netname=A13
}
C 56100 49300 1 0 0 busripper-1.sym
{
T 56100 49700 5 8 0 0 0 0 1
device=none
}
N 54700 49600 56100 49600 4
{
T 55700 49600 5 10 1 1 0 0 1
netname=A14
}
C 56100 49600 1 0 0 busripper-1.sym
{
T 56100 50000 5 8 0 0 0 0 1
device=none
}
N 54700 49900 56100 49900 4
{
T 55700 49900 5 10 1 1 0 0 1
netname=A15
}
C 56100 49900 1 0 0 busripper-1.sym
{
T 56100 50300 5 8 0 0 0 0 1
device=none
}
N 54700 48100 56100 48100 4
{
T 55700 48100 5 10 1 1 0 0 1
netname=A9
}
C 56100 48100 1 0 0 busripper-1.sym
{
T 56100 48500 5 8 0 0 0 0 1
device=none
}
N 54700 48400 56100 48400 4
{
T 55700 48400 5 10 1 1 0 0 1
netname=A10
}
C 56100 48400 1 0 0 busripper-1.sym
{
T 56100 48800 5 8 0 0 0 0 1
device=none
}
N 54700 48700 56100 48700 4
{
T 55700 48700 5 10 1 1 0 0 1
netname=A11
}
C 56100 48700 1 0 0 busripper-1.sym
{
T 56100 49100 5 8 0 0 0 0 1
device=none
}
N 54700 47800 56100 47800 4
{
T 55700 47800 5 10 1 1 0 0 1
netname=A8
}
N 54700 47500 56100 47500 4
{
T 55700 47500 5 10 1 1 0 0 1
netname=A7
}
N 54700 47200 56100 47200 4
{
T 55700 47200 5 10 1 1 0 0 1
netname=A6
}
N 54700 46900 56100 46900 4
{
T 55700 46900 5 10 1 1 0 0 1
netname=A5
}
N 54700 46600 56100 46600 4
{
T 55700 46600 5 10 1 1 0 0 1
netname=A4
}
N 54700 46300 56100 46300 4
{
T 55700 46300 5 10 1 1 0 0 1
netname=A3
}
N 54700 46000 56100 46000 4
{
T 55700 46000 5 10 1 1 0 0 1
netname=A2
}
N 54700 45700 56100 45700 4
{
T 55700 45700 5 10 1 1 0 0 1
netname=A1
}
N 54700 45400 56100 45400 4
{
T 55700 45400 5 10 1 1 0 0 1
netname=A0
}
C 56100 47800 1 0 0 busripper-1.sym
{
T 56100 48200 5 8 0 0 0 0 1
device=none
}
C 56100 47500 1 0 0 busripper-1.sym
{
T 56100 47900 5 8 0 0 0 0 1
device=none
}
C 56100 47200 1 0 0 busripper-1.sym
{
T 56100 47600 5 8 0 0 0 0 1
device=none
}
C 56100 46900 1 0 0 busripper-1.sym
{
T 56100 47300 5 8 0 0 0 0 1
device=none
}
C 56100 46600 1 0 0 busripper-1.sym
{
T 56100 47000 5 8 0 0 0 0 1
device=none
}
C 56100 46300 1 0 0 busripper-1.sym
{
T 56100 46700 5 8 0 0 0 0 1
device=none
}
C 56100 46000 1 0 0 busripper-1.sym
{
T 56100 46400 5 8 0 0 0 0 1
device=none
}
C 56100 45700 1 0 0 busripper-1.sym
{
T 56100 46100 5 8 0 0 0 0 1
device=none
}
C 56100 45400 1 0 0 busripper-1.sym
{
T 56100 45800 5 8 0 0 0 0 1
device=none
}
C 48800 49100 1 0 0 gnd-1.sym
C 50000 49700 1 180 0 capacitor-1.sym
{
T 49400 50100 5 10 1 1 0 0 1
refdes=C3
T 49400 49900 5 10 1 1 0 0 1
value=22PF
T 49400 49700 5 10 1 1 0 0 1
footprint=0805
T 49800 49000 5 10 0 0 180 0 1
device=CAPACITOR
T 49800 48800 5 10 0 0 180 0 1
symversion=0.1
}
N 50000 49500 50900 49500 4
N 50900 49500 50900 48800 4
N 54900 42000 55100 42000 4
{
T 54800 42000 5 10 0 0 0 0 1
netname=BA_R
}
N 56000 42000 56200 42000 4
{
T 55900 42000 5 10 0 0 0 0 1
netname=BA_LED
}
N 56200 42000 56200 42300 4
C 56000 43300 1 0 0 5V-plus-1.sym
N 56200 43300 56200 43200 4
C 50800 47100 1 0 0 5V-plus-1.sym
N 51000 46700 51000 47100 4
N 51000 47000 51400 47000 4
N 49100 49500 48900 49500 4
N 48900 49500 48900 49400 4
G 45500 40853 900 947 0 0 0
./symbols/osha-logo.svg
N 55900 43900 54700 43900 4
{
T 55300 43900 5 10 1 1 0 0 1
netname=\_WR\_
}
N 55900 44800 54700 44800 4
{
T 55300 44800 5 10 1 1 0 0 1
netname=\_MREQ\_
}
N 55900 44500 54700 44500 4
{
T 55300 44500 5 10 1 1 0 0 1
netname=\_IORQ\_
}
C 51400 41900 1 0 0 z80-1.sym
{
T 52800 47000 5 10 1 1 0 0 1
device=Z80
T 52800 46800 5 10 1 1 0 0 1
footprint=DIP40
T 52800 47200 5 10 1 1 0 0 1
refdes=U1
}
N 54700 42400 54900 42400 4
N 54900 42400 54900 42000 4
N 51400 46700 51000 46700 4
N 46600 43700 45400 43700 4
{
T 46200 43700 5 10 1 1 0 0 1
netname=\_RD\_
}
