v 20130925 2
C 40000 40000 0 0 0 title-B.sym
C 42900 43000 1 0 0 megahdr2x18-1.sym
{
T 43600 49300 5 10 1 1 0 0 1
device=MEGAHDR2X18
T 43600 49100 5 10 1 1 0 0 1
footprint=HEADER36_1
T 43600 49500 5 10 1 1 0 0 1
refdes=J1
}
C 42400 48800 1 0 0 5V-plus-1.sym
C 45500 48800 1 0 0 5V-plus-1.sym
C 52200 50400 1 0 0 5V-plus-1.sym
C 42500 42800 1 0 0 gnd-1.sym
C 45600 42800 1 0 0 gnd-1.sym
C 52400 41900 1 0 0 gnd-1.sym
N 52400 50100 52400 50400 4
N 52500 42300 52500 42200 4
N 45400 43400 45700 43400 4
N 45700 43400 45700 43100 4
N 42600 43100 42600 43400 4
N 42600 43400 42900 43400 4
N 42600 48800 42600 48500 4
N 42600 48500 42900 48500 4
N 45400 48500 45700 48500 4
N 45700 48500 45700 48800 4
C 47400 40800 1 90 0 capacitor-1.sym
{
T 46700 41000 5 10 0 0 90 0 1
device=CAPACITOR
T 47500 41400 5 10 1 1 0 0 1
refdes=C1
T 46500 41000 5 10 0 0 90 0 1
symversion=0.1
T 47500 41200 5 10 1 1 0 0 1
value=100NF
T 47500 41000 5 10 1 1 0 0 1
footprint=0805
}
C 48500 40800 1 90 0 capacitor-1.sym
{
T 47800 41000 5 10 0 0 90 0 1
device=CAPACITOR
T 48600 41400 5 10 1 1 0 0 1
refdes=C2
T 47600 41000 5 10 0 0 90 0 1
symversion=0.1
T 48600 41200 5 10 1 1 0 0 1
value=100NF
T 48600 41000 5 10 1 1 0 0 1
footprint=0805
}
C 47000 41900 1 0 0 5V-plus-1.sym
C 47100 40300 1 0 0 gnd-1.sym
C 48200 40300 1 0 0 gnd-1.sym
N 47200 40800 47200 40600 4
N 48300 40800 48300 40600 4
N 47200 41900 47200 41700 4
N 48300 41700 48300 41800 4
N 48300 41800 47200 41800 4
N 42900 46100 41500 46100 4
{
T 41600 46100 5 10 1 1 0 0 1
netname=A9
}
C 41500 46100 1 90 0 busripper-1.sym
{
T 41100 46100 5 8 0 0 90 0 1
device=none
}
N 42900 46400 41500 46400 4
{
T 41600 46400 5 10 1 1 0 0 1
netname=A11
}
C 41500 46400 1 90 0 busripper-1.sym
{
T 41100 46400 5 8 0 0 90 0 1
device=none
}
N 42900 46700 41500 46700 4
{
T 41600 46700 5 10 1 1 0 0 1
netname=A13
}
C 41500 46700 1 90 0 busripper-1.sym
{
T 41100 46700 5 8 0 0 90 0 1
device=none
}
N 45400 46100 46800 46100 4
{
T 46200 46100 5 10 1 1 0 0 1
netname=A8
}
C 46800 46100 1 0 0 busripper-1.sym
{
T 46800 46500 5 8 0 0 0 0 1
device=none
}
N 45400 46400 46800 46400 4
{
T 46200 46400 5 10 1 1 0 0 1
netname=A10
}
C 46800 46400 1 0 0 busripper-1.sym
{
T 46800 46800 5 8 0 0 0 0 1
device=none
}
N 45400 46700 46800 46700 4
{
T 46200 46700 5 10 1 1 0 0 1
netname=A12
}
C 46800 46700 1 0 0 busripper-1.sym
{
T 46800 47100 5 8 0 0 0 0 1
device=none
}
N 45400 47000 46800 47000 4
{
T 46200 47000 5 10 1 1 0 0 1
netname=A14
}
C 46800 47000 1 0 0 busripper-1.sym
{
T 46800 47400 5 8 0 0 0 0 1
device=none
}
N 42900 45500 41700 45500 4
{
T 41800 45500 5 10 1 1 0 0 1
netname=\_NMI\_
}
N 46600 45800 45400 45800 4
{
T 46100 45800 5 10 1 1 0 0 1
netname=RX
}
N 46600 45500 45400 45500 4
{
T 46100 45500 5 10 1 1 0 0 1
netname=X2
}
N 42900 45800 41700 45800 4
{
T 41800 45800 5 10 1 1 0 0 1
netname=\_IRQ1\_
}
N 42900 44000 41700 44000 4
{
T 41800 44000 5 10 1 1 0 0 1
netname=\_RESET\_
}
N 45400 44000 46700 44000 4
{
T 46000 44000 5 10 1 1 0 0 1
netname=X3
}
N 50900 48900 49000 48900 4
{
T 49000 48900 5 10 1 1 0 0 1
netname=CLK
}
N 45400 43700 46700 43700 4
{
T 46000 43700 5 10 1 1 0 0 1
netname=X1
}
C 40900 43600 1 0 0 resistor-1.sym
{
T 41200 44000 5 10 0 0 0 0 1
device=RESISTOR
T 41000 43400 5 10 1 1 0 0 1
refdes=R1
T 41000 43200 5 10 1 1 0 0 1
value=33
T 41300 43200 5 10 1 1 0 0 1
footprint=0805
}
N 41800 43700 42900 43700 4
{
T 41900 43700 5 10 1 1 0 0 1
netname=CLK_R
}
N 40200 43700 40900 43700 4
{
T 40200 43700 5 10 1 1 0 0 1
netname=CLK
}
T 50100 40700 9 16 1 0 0 0 1
6803 RETRO SHIELD FOR ARDUINO MEGA
T 49500 41000 9 10 1 0 0 0 2
Released under the Creative Commons Attribution Share-Alike 4.0 License
https://creativecommons.org/licenses/by-sa/4.0/
T 54000 40100 9 10 1 0 0 0 1
ERTURK KOCALAR
T 54000 40400 9 10 1 0 0 0 1
REV 0.1 - 2019/08/26
T 50900 40100 9 10 1 0 0 0 1
1
T 51600 40100 9 10 1 0 0 0 1
1
T 50800 40400 9 10 1 0 0 0 1
K6803.SCH
C 55700 42400 1 180 0 led-1.sym
{
T 54900 41800 5 10 0 0 0 8 1
device=LED
T 55300 41700 5 10 1 1 180 8 1
refdes=LED1
T 54900 41600 5 10 0 0 0 8 1
symversion=0.1
T 55700 42400 5 10 0 0 90 8 1
footprint=LED3
}
T 55300 41500 9 10 1 0 0 0 1
RED
U 55800 47100 55800 49500 10 1
U 55800 49500 56300 49500 10 0
{
T 56100 49600 5 10 1 1 0 0 1
netname=A
}
C 55600 48300 1 0 0 busripper-1.sym
{
T 55600 48700 5 8 0 0 0 0 1
device=none
}
C 55600 48600 1 0 0 busripper-1.sym
{
T 55600 49000 5 8 0 0 0 0 1
device=none
}
C 55600 48900 1 0 0 busripper-1.sym
{
T 55600 49300 5 8 0 0 0 0 1
device=none
}
C 55600 49200 1 0 0 busripper-1.sym
{
T 55600 49600 5 8 0 0 0 0 1
device=none
}
C 55600 47400 1 0 0 busripper-1.sym
{
T 55600 47800 5 8 0 0 0 0 1
device=none
}
C 55600 47700 1 0 0 busripper-1.sym
{
T 55600 48100 5 8 0 0 0 0 1
device=none
}
C 55600 48000 1 0 0 busripper-1.sym
{
T 55600 48400 5 8 0 0 0 0 1
device=none
}
C 55600 47100 1 0 0 busripper-1.sym
{
T 55600 47500 5 8 0 0 0 0 1
device=none
}
C 48400 49200 1 0 0 gnd-1.sym
C 49600 49800 1 180 0 capacitor-1.sym
{
T 48800 49900 5 10 1 1 0 0 1
refdes=C3
T 49200 49900 5 10 1 1 0 0 1
value=22PF
T 49000 49200 5 10 1 1 0 0 1
footprint=0805
T 49400 49100 5 10 0 0 180 0 1
device=CAPACITOR
T 49400 48900 5 10 0 0 180 0 1
symversion=0.1
}
N 48500 49500 48500 49600 4
N 48500 49600 48700 49600 4
N 49600 49600 49900 49600 4
N 49900 49600 49900 48900 4
G 45500 40853 900 947 0 0 0
./symbols/osha-logo.svg
N 54200 47100 55600 47100 4
{
T 55000 47100 5 10 1 1 0 0 1
netname=A8
}
N 54200 47400 55600 47400 4
{
T 55000 47400 5 10 1 1 0 0 1
netname=A9
}
N 54200 47700 55600 47700 4
{
T 55000 47700 5 10 1 1 0 0 1
netname=A10
}
N 54200 48000 55600 48000 4
{
T 55000 48000 5 10 1 1 0 0 1
netname=A11
}
N 54200 48300 55600 48300 4
{
T 55000 48300 5 10 1 1 0 0 1
netname=A12
}
N 54200 48600 55600 48600 4
{
T 55000 48600 5 10 1 1 0 0 1
netname=A13
}
N 54200 48900 55600 48900 4
{
T 55000 48900 5 10 1 1 0 0 1
netname=A14
}
N 54200 49200 55600 49200 4
{
T 55000 49200 5 10 1 1 0 0 1
netname=A15
}
N 55400 43800 54200 43800 4
{
T 54600 43800 5 10 1 1 0 0 1
netname=AS
}
C 54800 42700 1 0 0 resistor-1.sym
{
T 55100 43100 5 10 0 0 0 0 1
device=RESISTOR
T 55100 43000 5 10 1 1 0 0 1
refdes=R2
T 54800 42500 5 10 1 1 0 0 1
value=680
T 55400 42500 5 10 1 1 0 0 1
footprint=0805
}
N 50900 47700 49700 47700 4
{
T 49700 47700 5 10 1 1 0 0 1
netname=\_NMI\_
}
U 47000 47300 47900 47300 10 0
{
T 47400 47400 5 10 1 1 0 0 1
netname=A
}
U 47000 46200 47000 47300 10 1
U 41300 47300 40400 47300 10 0
{
T 40400 47400 5 10 1 1 0 0 1
netname=A
}
U 41300 47300 41300 46200 10 1
T 40400 40400 9 18 1 0 0 0 1
WORK IN PROGRESS
N 55400 43500 54200 43500 4
{
T 54600 43500 5 10 1 1 0 0 1
netname=R/\_W\_
}
N 50900 47100 49700 47100 4
{
T 50100 47100 5 10 1 1 0 0 1
netname=TIN
}
C 54300 41700 1 0 0 gnd-1.sym
N 45400 45200 46800 45200 4
{
T 46200 45200 5 10 1 1 0 0 1
netname=AD6
}
N 45400 44900 46800 44900 4
{
T 46200 44900 5 10 1 1 0 0 1
netname=AD4
}
N 45400 44600 46800 44600 4
{
T 46200 44600 5 10 1 1 0 0 1
netname=AD2
}
N 45400 44300 46800 44300 4
{
T 46200 44300 5 10 1 1 0 0 1
netname=AD0
}
C 46800 44300 1 0 0 busripper-1.sym
{
T 46800 44700 5 8 0 0 0 0 1
device=none
}
C 46800 44600 1 0 0 busripper-1.sym
{
T 46800 45000 5 8 0 0 0 0 1
device=none
}
C 46800 44900 1 0 0 busripper-1.sym
{
T 46800 45300 5 8 0 0 0 0 1
device=none
}
C 46800 45200 1 0 0 busripper-1.sym
{
T 46800 45600 5 8 0 0 0 0 1
device=none
}
U 47000 44400 47000 45500 10 1
U 47000 45500 47900 45500 10 0
{
T 47400 45600 5 10 1 1 0 0 1
netname=AD
}
U 41300 45500 40400 45500 10 0
{
T 40400 45600 5 10 1 1 0 0 1
netname=AD
}
N 42900 44300 41500 44300 4
{
T 41600 44300 5 10 1 1 0 0 1
netname=AD1
}
C 41500 44300 1 90 0 busripper-1.sym
{
T 41100 44300 5 8 0 0 90 0 1
device=none
}
N 42900 44600 41500 44600 4
{
T 41600 44600 5 10 1 1 0 0 1
netname=AD3
}
C 41500 44600 1 90 0 busripper-1.sym
{
T 41100 44600 5 8 0 0 90 0 1
device=none
}
N 42900 44900 41500 44900 4
{
T 41600 44900 5 10 1 1 0 0 1
netname=AD5
}
C 41500 44900 1 90 0 busripper-1.sym
{
T 41100 44900 5 8 0 0 90 0 1
device=none
}
N 42900 45200 41500 45200 4
{
T 41600 45200 5 10 1 1 0 0 1
netname=AD7
}
C 41500 45200 1 90 0 busripper-1.sym
{
T 41100 45200 5 8 0 0 90 0 1
device=none
}
U 41300 45500 41300 44400 10 1
N 50900 48300 49700 48300 4
{
T 49700 48300 5 10 1 1 0 0 1
netname=\_RESET\_
}
N 50900 46800 49700 46800 4
{
T 50100 46800 5 10 1 1 0 0 1
netname=TOUT
}
N 50900 48000 49700 48000 4
{
T 49700 48000 5 10 1 1 0 0 1
netname=\_IRQ1\_
}
U 55800 46800 56200 46800 10 0
{
T 56200 46900 5 10 1 1 0 6 1
netname=AD
}
C 55600 46500 1 270 1 busripper-1.sym
{
T 56000 46500 5 8 0 0 90 2 1
device=none
}
C 55600 46200 1 270 1 busripper-1.sym
{
T 56000 46200 5 8 0 0 90 2 1
device=none
}
C 55600 45900 1 270 1 busripper-1.sym
{
T 56000 45900 5 8 0 0 90 2 1
device=none
}
C 55600 45600 1 270 1 busripper-1.sym
{
T 56000 45600 5 8 0 0 90 2 1
device=none
}
U 55800 46800 55800 44400 10 1
N 54200 45900 55600 45900 4
{
T 55500 45900 5 10 1 1 0 6 1
netname=AD5
}
N 54200 46200 55600 46200 4
{
T 55500 46200 5 10 1 1 0 6 1
netname=AD6
}
N 54200 46500 55600 46500 4
{
T 55500 46500 5 10 1 1 0 6 1
netname=AD7
}
N 54200 45600 55600 45600 4
{
T 55500 45600 5 10 1 1 0 6 1
netname=AD4
}
C 55600 45300 1 270 1 busripper-1.sym
{
T 56000 45300 5 8 0 0 90 2 1
device=none
}
N 54200 45300 55600 45300 4
{
T 55500 45300 5 10 1 1 0 6 1
netname=AD3
}
C 55600 45000 1 270 1 busripper-1.sym
{
T 56000 45000 5 8 0 0 90 2 1
device=none
}
N 54200 45000 55600 45000 4
{
T 55500 45000 5 10 1 1 0 6 1
netname=AD2
}
C 55600 44700 1 270 1 busripper-1.sym
{
T 56000 44700 5 8 0 0 90 2 1
device=none
}
N 54200 44700 55600 44700 4
{
T 55500 44700 5 10 1 1 0 6 1
netname=AD1
}
C 55600 44400 1 270 1 busripper-1.sym
{
T 56000 44400 5 8 0 0 90 2 1
device=none
}
N 54200 44400 55600 44400 4
{
T 55500 44400 5 10 1 1 0 6 1
netname=AD0
}
N 54400 42000 54400 42200 4
N 54400 42200 54800 42200 4
N 42900 47300 41500 47300 4
{
T 42200 47300 5 10 1 1 0 0 1
netname=GPIO
}
N 42900 47600 41500 47600 4
{
T 42200 47600 5 10 1 1 0 0 1
netname=R/\_W\_
}
N 42900 47900 41500 47900 4
{
T 42200 47900 5 10 1 1 0 0 1
netname=AS
}
N 42900 48200 41500 48200 4
{
T 42200 48200 5 10 1 1 0 0 1
netname=E
}
N 45400 47300 46800 47300 4
{
T 45800 47300 5 10 1 1 0 0 1
netname=TX
}
N 45400 47600 46800 47600 4
{
T 45800 47600 5 10 1 1 0 0 1
netname=SCLK
}
N 45400 47900 46800 47900 4
{
T 45800 47900 5 10 1 1 0 0 1
netname=TOUT
}
N 45400 48200 46800 48200 4
{
T 45800 48200 5 10 1 1 0 0 1
netname=TIN
}
C 50900 42300 1 0 0 6803-1.sym
{
T 52200 47900 5 10 1 1 0 0 1
device=6803
T 52200 47700 5 10 1 1 0 0 1
footprint=DIP40
T 52200 48100 5 10 1 1 0 0 1
refdes=U1
}
N 52700 50100 52700 50300 4
N 52700 50300 52400 50300 4
C 50300 49100 1 0 0 gnd-1.sym
N 50900 49200 50700 49200 4
N 50700 49200 50700 49600 4
N 50700 49600 50400 49600 4
N 50400 49600 50400 49400 4
N 54200 43200 54400 43200 4
N 54400 43200 54400 42800 4
N 54400 42800 54800 42800 4
{
T 54500 42800 5 10 1 1 0 0 1
netname=E
}
N 55700 42800 56100 42800 4
N 56100 42800 56100 42200 4
N 56100 42200 55700 42200 4
N 50900 46500 49700 46500 4
{
T 50100 46500 5 10 1 1 0 0 1
netname=SCLK
}
N 50900 46200 49700 46200 4
{
T 50100 46200 5 10 1 1 0 0 1
netname=RX
}
N 50900 45900 49700 45900 4
{
T 50100 45900 5 10 1 1 0 0 1
netname=TX
}
T 50600 43000 9 10 1 0 90 0 1
P1x accessable on headers.
N 42900 47000 41500 47000 4
{
T 41600 47000 5 10 1 1 0 0 1
netname=A15
}
C 41500 47000 1 90 0 busripper-1.sym
{
T 41100 47000 5 8 0 0 90 0 1
device=none
}
T 48300 44400 9 10 1 0 0 0 5
6803 Mode Setting:
P22-P21-P20
011= mode3
ROM=External
RAM=External
C 42600 49900 1 0 1 connector2-1.sym
{
T 42400 50900 5 10 0 0 0 6 1
device=CONNECTOR_2
T 42400 50700 5 10 1 1 0 6 1
refdes=J2
T 41900 49700 5 10 1 1 0 0 1
footprint=HEADER2_1
}
N 40900 50400 40400 50400 4
{
T 40400 50400 5 10 1 1 0 0 1
netname=GPIO
}
C 40600 49600 1 0 0 gnd-1.sym
N 40700 49900 40700 50100 4
N 40700 50100 40900 50100 4
