v 20130925 2
P 0 4500 300 4500 1 0 0
{
T 0 4500 5 10 0 0 0 0 1
pintype=in
T 355 4495 5 10 1 1 0 0 1
pinlabel=RST7.5
T 205 4545 5 10 1 1 0 6 1
pinnumber=7
T 0 4500 5 10 0 0 0 0 1
pinseq=2
}
P 0 5700 300 5700 1 0 0
{
T 0 5700 5 10 0 0 0 0 1
pintype=in
T 0 5700 5 10 0 0 0 0 1
pinseq=4
T 355 5695 5 10 1 1 0 0 1
pinlabel=SID
T 205 5745 5 10 1 1 0 6 1
pinnumber=5
}
P 0 5400 300 5400 1 0 0
{
T 0 5400 5 10 0 0 0 0 1
pintype=in
T 0 5400 5 10 0 0 0 0 1
pinseq=6
T 355 5395 5 10 1 1 0 0 1
pinlabel=SOD
T 205 5445 5 10 1 1 0 6 1
pinnumber=4
}
P 3300 2700 3000 2700 1 0 0
{
T 3300 2700 5 10 0 0 0 0 1
pintype=out
T 3300 2700 5 10 0 0 0 0 1
pinseq=34
T 2945 2695 5 10 1 1 0 6 1
pinlabel=AD0
T 3095 2745 5 10 1 1 0 0 1
pinnumber=12
}
P 3300 7500 3000 7500 1 0 0
{
T 3300 7500 5 10 0 0 0 0 1
pintype=out
T 3300 7500 5 10 0 0 0 0 1
pinseq=25
T 2945 7495 5 10 1 1 0 6 1
pinlabel=A15
T 3095 7545 5 10 1 1 0 0 1
pinnumber=28
}
P 3300 7200 3000 7200 1 0 0
{
T 3300 7200 5 10 0 0 0 0 1
pintype=out
T 3300 7200 5 10 0 0 0 0 1
pinseq=24
T 2945 7195 5 10 1 1 0 6 1
pinlabel=A14
T 3095 7245 5 10 1 1 0 0 1
pinnumber=27
}
P 3300 6900 3000 6900 1 0 0
{
T 3300 6900 5 10 0 0 0 0 1
pintype=out
T 3300 6900 5 10 0 0 0 0 1
pinseq=23
T 2945 6895 5 10 1 1 0 6 1
pinlabel=A13
T 3095 6945 5 10 1 1 0 0 1
pinnumber=26
}
P 3300 6600 3000 6600 1 0 0
{
T 3300 6600 5 10 0 0 0 0 1
pintype=out
T 3300 6600 5 10 0 0 0 0 1
pinseq=22
T 2945 6595 5 10 1 1 0 6 1
pinlabel=A12
T 3095 6645 5 10 1 1 0 0 1
pinnumber=25
}
B 300 300 2700 7800 3 0 0 0 -1 -1 0 -1 -1 -1 -1 -1
P 0 7200 300 7200 1 0 0
{
T 0 7200 5 10 0 0 0 0 1
pintype=clk
T 355 7195 5 10 1 1 0 0 1
pinlabel=X1
T 205 7245 5 10 1 1 0 6 1
pinnumber=1
T 0 7200 5 10 0 0 0 0 1
pinseq=37
}
P 0 4800 300 4800 1 0 0
{
T 0 4800 5 10 0 0 0 0 1
pintype=in
T 0 4800 5 10 0 0 0 0 1
pinseq=40
T 355 4795 5 10 1 1 0 0 1
pinlabel=TRAP
T 205 4845 5 10 1 1 0 6 1
pinnumber=6
}
P 0 4200 300 4200 1 0 0
{
T 0 4200 5 10 0 0 0 0 1
pintype=in
T 355 4195 5 10 1 1 0 0 1
pinlabel=RST6.5
T 205 4245 5 10 1 1 0 6 1
pinnumber=8
T 0 4200 5 10 0 0 0 0 1
pinseq=38
}
P 0 3300 300 3300 1 0 0
{
T 0 3300 5 10 0 0 0 0 1
pintype=tri
T 355 3295 5 10 1 1 0 0 1
pinlabel=INTR
T 205 3345 5 10 1 1 0 6 1
pinnumber=10
T 0 3300 5 10 0 0 0 0 1
pinseq=31
}
P 0 3900 300 3900 1 0 0
{
T 0 3900 5 10 0 0 0 0 1
pintype=tri
T 355 3895 5 10 1 1 0 0 1
pinlabel=RST5.5
T 205 3945 5 10 1 1 0 6 1
pinnumber=9
T 0 3900 5 10 0 0 0 0 1
pinseq=30
}
P 0 3000 300 3000 1 0 0
{
T 0 3000 5 10 0 0 0 0 1
pintype=tri
T 355 2995 5 10 1 1 0 0 1
pinlabel=\_INTA\_
T 205 3045 5 10 1 1 0 6 1
pinnumber=11
T 0 3000 5 10 0 0 0 0 1
pinseq=29
}
P 0 1500 300 1500 1 0 0
{
T 0 1500 5 10 0 0 0 0 1
pintype=tri
T 355 1495 5 10 1 1 0 0 1
pinlabel=\_RESET_IN\_
T 205 1545 5 10 1 1 0 6 1
pinnumber=36
T 0 1500 5 10 0 0 0 0 1
pinseq=28
}
P 0 2400 300 2400 1 0 0
{
T 0 2400 5 10 0 0 0 0 1
pintype=tri
T 355 2395 5 10 1 1 0 0 1
pinlabel=HOLD
T 205 2445 5 10 1 1 0 6 1
pinnumber=39
T 0 2400 5 10 0 0 0 0 1
pinseq=27
}
P 0 2700 300 2700 1 0 0
{
T 0 2700 5 10 0 0 0 0 1
pintype=tri
T 355 2695 5 10 1 1 0 0 1
pinlabel=READY
T 205 2745 5 10 1 1 0 6 1
pinnumber=35
T 0 2700 5 10 0 0 0 0 1
pinseq=26
}
P 3300 1200 3000 1200 1 0 0
{
T 3300 1200 5 10 0 0 0 0 1
pintype=out
T 3300 1200 5 10 0 0 0 0 1
pinseq=3
T 2945 1195 5 10 1 1 0 6 1
pinlabel=IO/\_M\_
T 3095 1245 5 10 1 1 0 0 1
pinnumber=34
}
P 3300 600 3000 600 1 0 0
{
T 3300 600 5 10 0 0 0 0 1
pintype=out
T 3300 600 5 10 0 0 0 0 1
pinseq=7
T 2945 595 5 10 1 1 0 6 1
pinlabel=S1
T 3095 645 5 10 1 1 0 0 1
pinnumber=33
}
P 3300 6300 3000 6300 1 0 0
{
T 3300 6300 5 10 0 0 0 0 1
pintype=out
T 3300 6300 5 10 0 0 0 0 1
pinseq=20
T 2945 6295 5 10 1 1 0 6 1
pinlabel=A11
T 3095 6345 5 10 1 1 0 0 1
pinnumber=24
}
P 3300 6000 3000 6000 1 0 0
{
T 3300 6000 5 10 0 0 0 0 1
pintype=out
T 3300 6000 5 10 0 0 0 0 1
pinseq=19
T 2945 5995 5 10 1 1 0 6 1
pinlabel=A10
T 3095 6045 5 10 1 1 0 0 1
pinnumber=23
}
P 3300 5700 3000 5700 1 0 0
{
T 3300 5700 5 10 0 0 0 0 1
pintype=out
T 3300 5700 5 10 0 0 0 0 1
pinseq=18
T 2945 5695 5 10 1 1 0 6 1
pinlabel=A9
T 3095 5745 5 10 1 1 0 0 1
pinnumber=22
}
P 3300 5400 3000 5400 1 0 0
{
T 3300 5400 5 10 0 0 0 0 1
pintype=out
T 3300 5400 5 10 0 0 0 0 1
pinseq=17
T 2945 5395 5 10 1 1 0 6 1
pinlabel=A8
T 3095 5445 5 10 1 1 0 0 1
pinnumber=21
}
P 3300 2100 3000 2100 1 0 0
{
T 3300 2100 5 10 0 0 0 0 1
pintype=out
T 3300 2100 5 10 0 0 0 0 1
pinseq=16
T 2945 2095 5 10 1 1 0 6 1
pinlabel=ALE
T 3095 2145 5 10 1 1 0 0 1
pinnumber=30
}
P 3300 4800 3000 4800 1 0 0
{
T 3300 4800 5 10 0 0 0 0 1
pintype=out
T 3300 4800 5 10 0 0 0 0 1
pinseq=15
T 2945 4795 5 10 1 1 0 6 1
pinlabel=AD7
T 3095 4845 5 10 1 1 0 0 1
pinnumber=19
}
P 3300 4500 3000 4500 1 0 0
{
T 3300 4500 5 10 0 0 0 0 1
pintype=out
T 3300 4500 5 10 0 0 0 0 1
pinseq=14
T 2945 4495 5 10 1 1 0 6 1
pinlabel=AD6
T 3095 4545 5 10 1 1 0 0 1
pinnumber=18
}
P 3300 4200 3000 4200 1 0 0
{
T 3300 4200 5 10 0 0 0 0 1
pintype=out
T 3300 4200 5 10 0 0 0 0 1
pinseq=13
T 2945 4195 5 10 1 1 0 6 1
pinlabel=AD5
T 3095 4245 5 10 1 1 0 0 1
pinnumber=17
}
P 3300 3900 3000 3900 1 0 0
{
T 3300 3900 5 10 0 0 0 0 1
pintype=out
T 3300 3900 5 10 0 0 0 0 1
pinseq=12
T 2945 3895 5 10 1 1 0 6 1
pinlabel=AD4
T 3095 3945 5 10 1 1 0 0 1
pinnumber=16
}
P 3300 3600 3000 3600 1 0 0
{
T 3300 3600 5 10 0 0 0 0 1
pintype=out
T 3300 3600 5 10 0 0 0 0 1
pinseq=11
T 2945 3595 5 10 1 1 0 6 1
pinlabel=AD3
T 3095 3645 5 10 1 1 0 0 1
pinnumber=15
}
P 3300 3300 3000 3300 1 0 0
{
T 3300 3300 5 10 0 0 0 0 1
pintype=out
T 3300 3300 5 10 0 0 0 0 1
pinseq=10
T 2945 3295 5 10 1 1 0 6 1
pinlabel=AD2
T 3095 3345 5 10 1 1 0 0 1
pinnumber=14
}
P 3300 3000 3000 3000 1 0 0
{
T 3300 3000 5 10 0 0 0 0 1
pintype=out
T 3300 3000 5 10 0 0 0 0 1
pinseq=9
T 2945 2995 5 10 1 1 0 6 1
pinlabel=AD1
T 3095 3045 5 10 1 1 0 0 1
pinnumber=13
}
P 1700 0 1700 300 1 0 0
{
T 1700 0 5 10 0 0 0 0 1
pintype=pwr
T 1700 355 5 10 1 1 90 0 1
pinlabel=VSS
T 1650 205 5 10 1 1 90 6 1
pinnumber=20
T 1700 0 5 10 0 0 0 0 1
pinseq=21
}
T 1400 5100 8 10 1 1 0 0 1
device=8085A
T 4700 4300 8 10 0 1 0 0 1
description=8085A MICROPROCESSOR
T 1400 4900 8 10 1 1 0 0 1
footprint=DIP40
T 4700 4100 8 10 0 0 0 0 1
numslots=1
T 1400 5300 8 10 1 1 0 0 1
refdes=U?
P 1700 8400 1700 8100 1 0 0
{
T 1700 8400 5 10 0 0 0 0 1
pintype=pwr
T 1700 8400 5 10 0 0 0 0 1
pinseq=8
T 1700 8045 5 10 1 1 90 6 1
pinlabel=VCC
T 1650 8195 5 10 1 1 90 0 1
pinnumber=40
}
P 3300 900 3000 900 1 0 0
{
T 3300 900 5 10 0 0 0 0 1
pintype=out
T 3300 900 5 10 0 0 0 0 1
pinseq=16
T 2945 895 5 10 1 1 0 6 1
pinlabel=S0
T 3095 945 5 10 1 1 0 0 1
pinnumber=29
}
P 0 6900 300 6900 1 0 0
{
T 0 6900 5 10 0 0 0 0 1
pintype=clk
T 355 6895 5 10 1 1 0 0 1
pinlabel=X2
T 205 6945 5 10 1 1 0 6 1
pinnumber=2
T 0 6900 5 10 0 0 0 0 1
pinseq=37
}
P 0 6300 300 6300 1 0 0
{
T 0 6300 5 10 0 0 0 0 1
pintype=tri
T 0 6300 5 10 0 0 0 0 1
pinseq=29
T 355 6295 5 10 1 1 0 0 1
pinlabel=CLK_OUT
T 205 6345 5 10 1 1 0 6 1
pinnumber=37
}
P 0 1200 300 1200 1 0 0
{
T 0 1200 5 10 0 0 0 0 1
pintype=tri
T 0 1200 5 10 0 0 0 0 1
pinseq=28
T 355 1195 5 10 1 1 0 0 1
pinlabel=RESET_OUT
T 205 1245 5 10 1 1 0 6 1
pinnumber=3
}
P 0 2100 300 2100 1 0 0
{
T 0 2100 5 10 0 0 0 0 1
pintype=tri
T 0 2100 5 10 0 0 0 0 1
pinseq=27
T 355 2095 5 10 1 1 0 0 1
pinlabel=HLDA
T 205 2145 5 10 1 1 0 6 1
pinnumber=38
}
P 3300 1500 3000 1500 1 0 0
{
T 3300 1500 5 10 0 0 0 0 1
pintype=out
T 3300 1500 5 10 0 0 0 0 1
pinseq=3
T 2945 1495 5 10 1 1 0 6 1
pinlabel=\_WR\_
T 3095 1545 5 10 1 1 0 0 1
pinnumber=31
}
P 3300 1800 3000 1800 1 0 0
{
T 3300 1800 5 10 0 0 0 0 1
pintype=out
T 3300 1800 5 10 0 0 0 0 1
pinseq=7
T 2945 1795 5 10 1 1 0 6 1
pinlabel=\_RD\_
T 3095 1845 5 10 1 1 0 0 1
pinnumber=32
}
