v 20130925 2
B 300 0 1900 6000 3 0 0 0 -1 -1 0 -1 -1 -1 -1 -1
P 0 5500 300 5500 1 0 0
{
T 0 5500 5 10 0 0 0 0 1
pintype=pwr
T 355 5495 5 10 1 1 0 0 1
pinlabel=+5V
T 205 5545 5 10 1 1 0 6 1
pinnumber=1
T 0 5500 5 10 0 0 0 0 1
pinseq=1
}
P 0 5200 300 5200 1 0 0
{
T 0 5200 5 10 0 0 0 0 1
pintype=io
T 355 5195 5 10 1 1 0 0 1
pinlabel=PA0-22
T 205 5245 5 10 1 1 0 6 1
pinnumber=2
T 0 5200 5 10 0 0 0 0 1
pinseq=2
}
P 0 4900 300 4900 1 0 0
{
T 0 4900 5 10 0 0 0 0 1
pintype=io
T 0 4900 5 10 0 0 0 0 1
pinseq=3
T 355 4895 5 10 1 1 0 0 1
pinlabel=PA2-24
T 205 4945 5 10 1 1 0 6 1
pinnumber=3
}
P 0 4600 300 4600 1 0 0
{
T 0 4600 5 10 0 0 0 0 1
pintype=io
T 0 4600 5 10 0 0 0 0 1
pinseq=4
T 355 4595 5 10 1 1 0 0 1
pinlabel=PA4-26
T 205 4645 5 10 1 1 0 6 1
pinnumber=4
}
P 0 4300 300 4300 1 0 0
{
T 0 4300 5 10 0 0 0 0 1
pintype=io
T 0 4300 5 10 0 0 0 0 1
pinseq=5
T 355 4295 5 10 1 1 0 0 1
pinlabel=PA6-28
T 205 4345 5 10 1 1 0 6 1
pinnumber=5
}
P 0 4000 300 4000 1 0 0
{
T 0 4000 5 10 0 0 0 0 1
pintype=io
T 0 4000 5 10 0 0 0 0 1
pinseq=6
T 355 3995 5 10 1 1 0 0 1
pinlabel=PC7-30
T 205 4045 5 10 1 1 0 6 1
pinnumber=6
}
P 0 3700 300 3700 1 0 0
{
T 0 3700 5 10 0 0 0 0 1
pintype=io
T 0 3700 5 10 0 0 0 0 1
pinseq=7
T 355 3695 5 10 1 1 0 0 1
pinlabel=PC5-32
T 205 3745 5 10 1 1 0 6 1
pinnumber=7
}
P 0 3400 300 3400 1 0 0
{
T 0 3400 5 10 0 0 0 0 1
pintype=io
T 0 3400 5 10 0 0 0 0 1
pinseq=8
T 355 3395 5 10 1 1 0 0 1
pinlabel=PC3-34
T 205 3445 5 10 1 1 0 6 1
pinnumber=8
}
P 0 3100 300 3100 1 0 0
{
T 0 3100 5 10 0 0 0 0 1
pintype=io
T 0 3100 5 10 0 0 0 0 1
pinseq=9
T 355 3095 5 10 1 1 0 0 1
pinlabel=PC1-36
T 205 3145 5 10 1 1 0 6 1
pinnumber=9
}
P 0 2800 300 2800 1 0 0
{
T 0 2800 5 10 0 0 0 0 1
pintype=io
T 0 2800 5 10 0 0 0 0 1
pinseq=11
T 355 2795 5 10 1 1 0 0 1
pinlabel=PD7-38
T 205 2845 5 10 1 1 0 6 1
pinnumber=10
}
P 0 2500 300 2500 1 0 0
{
T 0 2500 5 10 0 0 0 0 1
pintype=io
T 0 2500 5 10 0 0 0 0 1
pinseq=13
T 355 2495 5 10 1 1 0 0 1
pinlabel=PG1-40
T 205 2545 5 10 1 1 0 6 1
pinnumber=11
}
P 0 2200 300 2200 1 0 0
{
T 0 2200 5 10 0 0 0 0 1
pintype=io
T 0 2200 5 10 0 0 0 0 1
pinseq=15
T 355 2195 5 10 1 1 0 0 1
pinlabel=PL7-42
T 205 2245 5 10 1 1 0 6 1
pinnumber=12
}
P 0 1900 300 1900 1 0 0
{
T 0 1900 5 10 0 0 0 0 1
pintype=io
T 0 1900 5 10 0 0 0 0 1
pinseq=17
T 355 1895 5 10 1 1 0 0 1
pinlabel=PL5-44
T 205 1945 5 10 1 1 0 6 1
pinnumber=13
}
P 0 1600 300 1600 1 0 0
{
T 0 1600 5 10 0 0 0 0 1
pintype=io
T 0 1600 5 10 0 0 0 0 1
pinseq=19
T 355 1595 5 10 1 1 0 0 1
pinlabel=PL3-46
T 205 1645 5 10 1 1 0 6 1
pinnumber=14
}
P 0 1300 300 1300 1 0 0
{
T 0 1300 5 10 0 0 0 0 1
pintype=io
T 0 1300 5 10 0 0 0 0 1
pinseq=21
T 355 1295 5 10 1 1 0 0 1
pinlabel=PL1-48
T 205 1345 5 10 1 1 0 6 1
pinnumber=15
}
P 0 1000 300 1000 1 0 0
{
T 0 1000 5 10 0 0 0 0 1
pintype=io
T 0 1000 5 10 0 0 0 0 1
pinseq=23
T 355 995 5 10 1 1 0 0 1
pinlabel=PB3-50
T 205 1045 5 10 1 1 0 6 1
pinnumber=16
}
P 0 700 300 700 1 0 0
{
T 0 700 5 10 0 0 0 0 1
pintype=io
T 0 700 5 10 0 0 0 0 1
pinseq=25
T 355 695 5 10 1 1 0 0 1
pinlabel=PB1-52
T 205 745 5 10 1 1 0 6 1
pinnumber=17
}
P 0 400 300 400 1 0 0
{
T 0 400 5 10 0 0 0 0 1
pintype=pwr
T 0 400 5 10 0 0 0 0 1
pinseq=27
T 355 395 5 10 1 1 0 0 1
pinlabel=GND
T 205 445 5 10 1 1 0 6 1
pinnumber=18
}
P 2500 5500 2200 5500 1 0 0
{
T 2500 5500 5 10 0 0 0 0 1
pintype=pwr
T 2145 5495 5 10 1 1 0 6 1
pinlabel=+5V
T 2295 5545 5 10 1 1 0 0 1
pinnumber=36
T 2500 5500 5 10 0 0 0 0 1
pinseq=10
}
P 2500 5200 2200 5200 1 0 0
{
T 2500 5200 5 10 0 0 0 0 1
pintype=io
T 2500 5200 5 10 0 0 0 0 1
pinseq=12
T 2145 5195 5 10 1 1 0 6 1
pinlabel=23-PA1
T 2295 5245 5 10 1 1 0 0 1
pinnumber=35
}
P 2500 4900 2200 4900 1 0 0
{
T 2500 4900 5 10 0 0 0 0 1
pintype=io
T 2500 4900 5 10 0 0 0 0 1
pinseq=14
T 2145 4895 5 10 1 1 0 6 1
pinlabel=25-PA3
T 2295 4945 5 10 1 1 0 0 1
pinnumber=34
}
P 2500 4600 2200 4600 1 0 0
{
T 2500 4600 5 10 0 0 0 0 1
pintype=io
T 2500 4600 5 10 0 0 0 0 1
pinseq=16
T 2145 4595 5 10 1 1 0 6 1
pinlabel=27-PA5
T 2295 4645 5 10 1 1 0 0 1
pinnumber=33
}
P 2500 4300 2200 4300 1 0 0
{
T 2500 4300 5 10 0 0 0 0 1
pintype=io
T 2500 4300 5 10 0 0 0 0 1
pinseq=18
T 2145 4295 5 10 1 1 0 6 1
pinlabel=29-PA7
T 2295 4345 5 10 1 1 0 0 1
pinnumber=32
}
P 2500 4000 2200 4000 1 0 0
{
T 2500 4000 5 10 0 0 0 0 1
pintype=io
T 2500 4000 5 10 0 0 0 0 1
pinseq=20
T 2145 3995 5 10 1 1 0 6 1
pinlabel=31-PC6
T 2295 4045 5 10 1 1 0 0 1
pinnumber=31
}
P 2500 3700 2200 3700 1 0 0
{
T 2500 3700 5 10 0 0 0 0 1
pintype=io
T 2500 3700 5 10 0 0 0 0 1
pinseq=22
T 2145 3695 5 10 1 1 0 6 1
pinlabel=33-PC4
T 2295 3745 5 10 1 1 0 0 1
pinnumber=30
}
P 2500 3400 2200 3400 1 0 0
{
T 2500 3400 5 10 0 0 0 0 1
pintype=io
T 2500 3400 5 10 0 0 0 0 1
pinseq=24
T 2145 3395 5 10 1 1 0 6 1
pinlabel=35-PC2
T 2295 3445 5 10 1 1 0 0 1
pinnumber=29
}
P 2500 3100 2200 3100 1 0 0
{
T 2500 3100 5 10 0 0 0 0 1
pintype=io
T 2500 3100 5 10 0 0 0 0 1
pinseq=26
T 2145 3095 5 10 1 1 0 6 1
pinlabel=37-PC0
T 2295 3145 5 10 1 1 0 0 1
pinnumber=28
}
P 2500 2800 2200 2800 1 0 0
{
T 2500 2800 5 10 0 0 0 0 1
pintype=io
T 2500 2800 5 10 0 0 0 0 1
pinseq=28
T 2145 2795 5 10 1 1 0 6 1
pinlabel=39-PG2
T 2295 2845 5 10 1 1 0 0 1
pinnumber=27
}
P 2500 2500 2200 2500 1 0 0
{
T 2500 2500 5 10 0 0 0 0 1
pintype=io
T 2500 2500 5 10 0 0 0 0 1
pinseq=29
T 2145 2495 5 10 1 1 0 6 1
pinlabel=41-PG0
T 2295 2545 5 10 1 1 0 0 1
pinnumber=26
}
P 2500 2200 2200 2200 1 0 0
{
T 2500 2200 5 10 0 0 0 0 1
pintype=io
T 2500 2200 5 10 0 0 0 0 1
pinseq=30
T 2145 2195 5 10 1 1 0 6 1
pinlabel=43-PL6
T 2295 2245 5 10 1 1 0 0 1
pinnumber=25
}
P 2500 1900 2200 1900 1 0 0
{
T 2500 1900 5 10 0 0 0 0 1
pintype=io
T 2500 1900 5 10 0 0 0 0 1
pinseq=31
T 2145 1895 5 10 1 1 0 6 1
pinlabel=45-PL4
T 2295 1945 5 10 1 1 0 0 1
pinnumber=24
}
P 2500 1600 2200 1600 1 0 0
{
T 2500 1600 5 10 0 0 0 0 1
pintype=io
T 2500 1600 5 10 0 0 0 0 1
pinseq=32
T 2145 1595 5 10 1 1 0 6 1
pinlabel=47-PL2
T 2295 1645 5 10 1 1 0 0 1
pinnumber=23
}
P 2500 1300 2200 1300 1 0 0
{
T 2500 1300 5 10 0 0 0 0 1
pintype=io
T 2500 1300 5 10 0 0 0 0 1
pinseq=33
T 2145 1295 5 10 1 1 0 6 1
pinlabel=49-PL0
T 2295 1345 5 10 1 1 0 0 1
pinnumber=22
}
P 2500 1000 2200 1000 1 0 0
{
T 2500 1000 5 10 0 0 0 0 1
pintype=io
T 2500 1000 5 10 0 0 0 0 1
pinseq=34
T 2145 995 5 10 1 1 0 6 1
pinlabel=51-PB2
T 2295 1045 5 10 1 1 0 0 1
pinnumber=21
}
P 2500 700 2200 700 1 0 0
{
T 2500 700 5 10 0 0 0 0 1
pintype=io
T 2500 700 5 10 0 0 0 0 1
pinseq=35
T 2145 695 5 10 1 1 0 6 1
pinlabel=53-PB0
T 2295 745 5 10 1 1 0 0 1
pinnumber=20
}
P 2500 400 2200 400 1 0 0
{
T 2500 400 5 10 0 0 0 0 1
pintype=pwr
T 2500 400 5 10 0 0 0 0 1
pinseq=36
T 2145 395 5 10 1 1 0 6 1
pinlabel=GND
T 2295 445 5 10 1 1 0 0 1
pinnumber=19
}
T 700 6300 8 10 1 1 0 0 1
device=MEGAHDR2X18
T 2900 2100 8 10 0 1 0 0 1
description=ARDUINO MEGA 36PIN HEADER
T 700 6100 8 10 1 1 0 0 1
footprint=HEADER36_1
T 700 6500 8 10 1 1 0 0 1
refdes=J?
T 2900 1900 8 10 0 1 0 0 1
numslots=1
