:10000000C1FB3180007ACD4D30C3E7302A88007CB7
:10001000B5CAE730110200197E11040019462366A3
:1000200068F3324400F9F1C1D1E1FBC93E7F3244AB
:1000300000318000018800111830CD1C305F500164
:100040008400CD3C30C3E730F3E5D5C5F521000091
:1000500039EB2A8800010600097323723E7F32447F
:1000600000F1C1D1E1FB318000CD4D30C3E7305705
:10007000224200210000393A4400BBDAA331224079
:10008000002A8200F9C501FAFF092282000170FFEF
:1000900009D218302A4200D5E52A4000F9F1C1D131
:1000A000E1FBC9318000D5C5EB2A880001060009B3
:1000B0007323723E7F324400C1D17A2A4200FBC3CF
:1000C0006931000000000000000000000000000096
:1000D0000000000000000000000000000000000020
:1000E0000000000000000000000000000000000010
:1000F0000000000000000000000000000000000000
:00000001FF