:100000000E02CD6B3DCDC83CCDD23DD1210000E3E9
:100010007DC6104F7CCE00477B914F7A98DA25350C
:100020003E10C3283579C611B7CA6735EBE3D55FF3
:100030001600CD563E0E3ACD783E7BCD2B3E7CCD84
:100040002B3E7DCD2B3EAFCD2B3E7B856F7CCE00F6
:1000500067E37E23CD2B3E1DC25235AF92CD2B3EA2
:10006000EBE1E3EBC31035CD563E0E3ACD783EAF13
:1000700057CD2B3EAFCD2B3EAFCD2B3E3E01CD2BF2
:100080003EAF92CD2B3ECDD23DC36B380E02CD6B31
:100090003DCDC83CD1210000E3CDC83CE37CCDC2BE
:1000A0003D7DCDC23D7DC6106F7CCE0067E3CD4E59
:1000B0003C7ECDC23DCD9F3DDA6B387DE60FC2AEB2
:1000C00035C399350E03CD6B3DCDC83CC1D1E1069A
:1000D000033E00D30179D3FF2FD302DB022FBECA28
:1000E00017367E2FD3033E80D301CD33363E00D367
:1000F00001CD2136CD2136CD2136DB022FBECA17E8
:00000001FF