v 20130925 2
C 33000 47500 1 0 0 megahdr2x18-1.sym
{
T 33700 53800 5 10 1 1 0 0 1
device=MEGAHDR2X18
T 33700 53600 5 10 1 1 0 0 1
footprint=HEADER36_1
T 34200 54000 5 10 1 1 0 0 1
refdes=J1
}
C 32500 53300 1 0 0 5V-plus-1.sym
C 35600 53300 1 0 0 5V-plus-1.sym
C 32600 47300 1 0 0 gnd-1.sym
C 35700 47300 1 0 0 gnd-1.sym
N 35500 47900 35800 47900 4
N 35800 47900 35800 47600 4
N 32700 47600 32700 47900 4
N 32700 47900 33000 47900 4
N 35500 53000 35800 53000 4
N 35800 53000 35800 53300 4
C 43600 35600 1 90 0 capacitor-1.sym
{
T 42900 35800 5 10 0 0 90 0 1
device=CAPACITOR
T 43700 36200 5 10 1 1 0 0 1
refdes=C6
T 42700 35800 5 10 0 0 90 0 1
symversion=0.1
T 43700 36000 5 10 1 1 0 0 1
value=100NF
T 43700 35800 5 10 1 1 0 0 1
footprint=0805
}
C 44700 35600 1 90 0 capacitor-1.sym
{
T 44000 35800 5 10 0 0 90 0 1
device=CAPACITOR
T 44800 36200 5 10 1 1 0 0 1
refdes=C7
T 43800 35800 5 10 0 0 90 0 1
symversion=0.1
T 44800 36000 5 10 1 1 0 0 1
value=100NF
T 44800 35800 5 10 1 1 0 0 1
footprint=0805
}
C 43200 36700 1 0 0 5V-plus-1.sym
C 43300 35100 1 0 0 gnd-1.sym
C 44400 35100 1 0 0 gnd-1.sym
N 43400 35600 43400 35400 4
N 44500 35600 44500 35400 4
N 43400 36700 43400 36500 4
N 44500 36500 44500 36600 4
N 43400 36600 45600 36600 4
T 56000 34300 9 16 1 0 0 0 1
4004 RETRO SHIELD FOR ARDUINO MEGA
T 55400 34600 9 10 1 0 0 0 2
Released under the Creative Commons Attribution Share-Alike 4.0 License
https://creativecommons.org/licenses/by-sa/4.0/
T 59400 33700 9 10 1 0 0 0 1
ERTURK KOCALAR
T 59400 34000 9 10 1 0 0 0 1
REV B - 2020/09/18
T 56300 33700 9 10 1 0 0 0 1
1
T 57000 33700 9 10 1 0 0 0 1
1
T 56200 34000 9 10 1 0 0 0 1
K4004.SCH
C 39900 41100 1 270 0 led-1.sym
{
T 40500 40300 5 10 0 0 90 8 1
device=LED
T 41000 40900 5 10 1 1 0 8 1
refdes=P15V
T 40700 40300 5 10 0 0 90 8 1
symversion=0.1
T 39900 41100 5 10 0 0 180 8 1
footprint=LED3
}
T 40900 40700 9 10 1 0 180 0 1
RED
G 41700 35653 900 947 0 0 0
./symbols/osha-logo.svg
N 46200 50000 48700 50000 4
{
T 46300 50000 5 10 1 1 0 0 1
netname=D0_15V
}
N 46200 49700 48700 49700 4
{
T 46300 49700 5 10 1 1 0 0 1
netname=D1_15V
}
N 46200 49400 48700 49400 4
{
T 46300 49400 5 10 1 1 0 0 1
netname=D2_15V
}
N 46200 49100 48700 49100 4
{
T 46300 49100 5 10 1 1 0 0 1
netname=D3_15V
}
C 40600 45500 1 0 0 cd40109-1.sym
{
T 41300 48300 5 10 1 1 0 0 1
device=CD40109B
T 41500 48100 5 10 1 1 0 0 1
footprint=SO16W
T 41600 48500 5 10 1 1 0 0 1
refdes=U2
}
C 43100 45500 1 0 0 gnd-1.sym
N 42900 46100 43200 46100 4
N 43200 46100 43200 45800 4
N 42900 49100 43200 49100 4
N 43200 49100 43200 49400 4
N 51300 50900 53800 50900 4
{
T 52400 50900 5 10 1 1 0 0 1
netname=CMROM_4004
}
N 51300 51500 53800 51500 4
{
T 52400 51500 5 10 1 1 0 0 1
netname=SYNC_4004
}
N 51300 50300 53800 50300 4
{
T 52400 50300 5 10 1 1 0 0 1
netname=CMRAM0_4004
}
N 51300 50000 53800 50000 4
{
T 52400 50000 5 10 1 1 0 0 1
netname=CMRAM1_4004
}
N 51300 49700 53800 49700 4
{
T 52400 49700 5 10 1 1 0 0 1
netname=CMRAM2_4004
}
N 51300 49400 53800 49400 4
{
T 52400 49400 5 10 1 1 0 0 1
netname=CMRAM3_4004
}
C 40100 49400 1 0 0 5V-plus-1.sym
N 40300 49100 40600 49100 4
N 58000 51500 58300 51500 4
N 58300 51500 58300 51800 4
C 58000 48400 1 0 0 gnd-1.sym
N 58000 48800 58100 48800 4
N 58100 48800 58100 48700 4
N 55400 51500 55700 51500 4
N 40300 49100 40300 49400 4
N 58000 46600 58300 46600 4
N 58300 46600 58300 46900 4
C 58000 43500 1 0 0 gnd-1.sym
N 58000 43900 58100 43900 4
N 58100 43900 58100 43800 4
N 55400 46600 55400 46900 4
N 55400 46600 55700 46600 4
N 48000 45700 48000 50000 4
N 47800 45400 47800 49700 4
N 47600 45100 47600 49400 4
N 47400 44800 47400 49100 4
N 48700 51500 46200 51500 4
{
T 46300 51500 5 10 1 1 0 0 1
netname=PHI1_15V
}
N 46200 51200 48700 51200 4
{
T 46300 51200 5 10 1 1 0 0 1
netname=PHI2_15V
}
N 46200 50900 48700 50900 4
{
T 46300 50900 5 10 1 1 0 0 1
netname=RESET_15V
}
C 48700 48500 1 0 0 4004-2.sym
{
T 50600 52000 5 10 1 1 0 0 1
device=4004
T 50400 48700 5 10 1 1 0 0 1
footprint=DIP16_ZIF
T 49000 52000 5 10 1 1 0 0 1
refdes=U1
}
C 49900 48200 1 0 0 gnd-1.sym
N 50000 48600 50000 48500 4
N 50200 52300 50000 52200 4
N 46200 50600 48700 50600 4
{
T 46300 50600 5 10 1 1 0 0 1
netname=TEST_15V
}
C 58100 46900 1 0 0 5V-plus-1.sym
C 58100 51800 1 0 0 5V-plus-1.sym
N 48000 45700 53500 45700 4
N 53500 45400 47800 45400 4
N 47600 45100 53500 45100 4
N 53500 44800 47400 44800 4
N 40600 48500 38400 48500 4
{
T 38500 48500 5 10 1 1 0 0 1
netname=ARDUINO_D3
}
N 40600 48200 38400 48200 4
{
T 38500 48200 5 10 1 1 0 0 1
netname=ARDUINO_D1
}
N 40600 47900 38400 47900 4
{
T 38500 47900 5 10 1 1 0 0 1
netname=ARDUINO_D0
}
N 40600 47600 38400 47600 4
{
T 38500 47600 5 10 1 1 0 0 1
netname=ARDUINO_D2
}
N 40600 47000 38400 47000 4
{
T 38500 47000 5 10 1 1 0 0 1
netname=DRIVE_DBUS
}
N 40600 46700 40400 46700 4
N 40400 45800 40400 47000 4
N 40600 46400 40400 46400 4
N 40600 46100 40400 46100 4
C 40500 44900 1 90 0 resistor-1.sym
{
T 40100 45200 5 10 0 0 90 0 1
device=RESISTOR
T 40200 45600 5 10 1 1 180 0 1
refdes=R3
T 40200 45400 5 10 1 1 180 0 1
value=10K
T 40200 45200 5 10 1 1 180 0 1
footprint=0805
}
C 40300 44500 1 0 0 gnd-1.sym
N 40400 44900 40400 44800 4
C 55700 39600 1 90 1 led-1.sym
{
T 55100 38800 5 10 0 0 270 2 1
device=LED
T 54900 38800 5 10 0 0 270 2 1
symversion=0.1
T 55700 39600 5 10 0 0 0 6 1
footprint=LED3
T 55600 38400 5 10 1 1 90 2 1
refdes=Q0
}
C 55400 40700 1 270 0 resistor-1.sym
{
T 55800 40400 5 10 0 0 270 0 1
device=RESISTOR
T 55600 40800 5 10 1 1 270 0 1
refdes=R12
T 55600 40000 5 10 1 1 270 0 1
value=680
T 55200 40100 5 10 0 1 270 0 1
footprint=0805
}
T 57600 38300 9 10 1 0 90 0 1
RED
C 56500 39600 1 90 1 led-1.sym
{
T 55900 38800 5 10 0 0 270 2 1
device=LED
T 55700 38800 5 10 0 0 270 2 1
symversion=0.1
T 56500 39600 5 10 0 0 0 6 1
footprint=LED3
T 56400 38400 5 10 1 1 90 2 1
refdes=Q1
}
C 56200 40700 1 270 0 resistor-1.sym
{
T 56600 40400 5 10 0 0 270 0 1
device=RESISTOR
T 56000 40100 5 10 0 1 270 0 1
footprint=0805
T 56400 40800 5 10 1 1 270 0 1
refdes=R13
T 56400 40000 5 10 1 1 270 0 1
value=680
}
T 56900 38300 9 10 1 0 90 0 1
RED
C 57200 39600 1 90 1 led-1.sym
{
T 56600 38800 5 10 0 0 270 2 1
device=LED
T 56400 38800 5 10 0 0 270 2 1
symversion=0.1
T 57200 39600 5 10 0 0 0 6 1
footprint=LED3
T 57100 38400 5 10 1 1 90 2 1
refdes=Q2
}
C 56900 40700 1 270 0 resistor-1.sym
{
T 57300 40400 5 10 0 0 270 0 1
device=RESISTOR
T 56700 40100 5 10 0 1 270 0 1
footprint=0805
T 57100 40800 5 10 1 1 270 0 1
refdes=R14
T 57100 40000 5 10 1 1 270 0 1
value=680
}
T 56200 38300 9 10 1 0 90 0 1
RED
C 57900 39600 1 90 1 led-1.sym
{
T 57300 38800 5 10 0 0 270 2 1
device=LED
T 57100 38800 5 10 0 0 270 2 1
symversion=0.1
T 57900 39600 5 10 0 0 0 6 1
footprint=LED3
T 57800 38400 5 10 1 1 90 2 1
refdes=Q3
}
C 57600 40700 1 270 0 resistor-1.sym
{
T 58000 40400 5 10 0 0 270 0 1
device=RESISTOR
T 57400 40100 5 10 0 1 270 0 1
footprint=0805
T 57800 40800 5 10 1 1 270 0 1
refdes=R15
T 57800 40000 5 10 1 1 270 0 1
value=680
}
T 55400 38300 9 10 1 0 90 0 1
RED
N 55500 38700 55500 38300 4
C 55400 38000 1 0 0 gnd-1.sym
T 58100 44200 9 10 1 0 0 0 1
NC
T 43000 46700 9 10 1 0 0 0 1
NC
C 29300 33600 0 0 0 title-A1.sym
N 55400 51500 55400 51800 4
T 49800 50600 9 10 1 0 0 0 1
CPU
C 45800 35600 1 90 0 capacitor-1.sym
{
T 45100 35800 5 10 0 0 90 0 1
device=CAPACITOR
T 44900 35800 5 10 0 0 90 0 1
symversion=0.1
T 45900 36200 5 10 1 1 0 0 1
refdes=C8
T 45900 36000 5 10 1 1 0 0 1
value=100NF
T 45900 35800 5 10 1 1 0 0 1
footprint=0805
}
C 45500 35100 1 0 0 gnd-1.sym
N 45600 35600 45600 35400 4
N 45600 36500 45600 36600 4
C 48500 35600 1 90 0 capacitor-1.sym
{
T 47800 35800 5 10 0 0 90 0 1
device=CAPACITOR
T 47600 35800 5 10 0 0 90 0 1
symversion=0.1
T 48600 36200 5 10 1 1 0 0 1
refdes=C9
T 48600 36000 5 10 1 1 0 0 1
value=100NF
T 48600 35800 5 10 1 1 0 0 1
footprint=0805
T 48600 35600 5 10 1 1 0 0 1
voltage=25V
}
C 48200 35100 1 0 0 gnd-1.sym
N 48300 35600 48300 35400 4
N 48300 36500 48300 36800 4
C 49600 35600 1 90 0 capacitor-1.sym
{
T 48900 35800 5 10 0 0 90 0 1
device=CAPACITOR
T 48700 35800 5 10 0 0 90 0 1
symversion=0.1
T 49700 36200 5 10 1 1 0 0 1
refdes=C10
T 49700 36000 5 10 1 1 0 0 1
value=100NF
T 49700 35800 5 10 1 1 0 0 1
footprint=0805
T 49700 35600 5 10 1 1 0 0 1
voltage=25V
}
C 49300 35100 1 0 0 gnd-1.sym
N 49400 35600 49400 35400 4
N 49400 36500 49400 36700 4
T 31600 43200 9 20 1 0 0 0 1
5V -> 15V BOOST CIRCUIT
N 43700 54300 44000 54300 4
N 44000 54300 44000 54600 4
C 43700 51200 1 0 0 gnd-1.sym
N 43700 51600 43800 51600 4
N 43800 51600 43800 51500 4
C 40900 54600 1 0 0 5V-plus-1.sym
N 41100 54300 41100 54600 4
N 41100 54300 41400 54300 4
C 41400 51000 1 0 0 cd4504b-1.sym
{
T 41700 54800 5 10 1 1 0 0 1
device=CD4504B
T 42900 54800 5 10 1 1 0 0 1
footprint=SO16
T 41700 55000 5 10 1 1 0 0 1
refdes=U4
}
C 40900 51100 1 0 0 gnd-1.sym
N 41000 51400 41000 52800 4
N 41000 51600 41400 51600 4
C 55700 48200 1 0 0 cd4504b-1.sym
{
T 56000 52000 5 10 1 1 0 0 1
device=CD4504B
T 57200 52000 5 10 1 1 0 0 1
footprint=SO16
T 56000 52200 5 10 1 1 0 0 1
refdes=U5
}
C 55500 48400 1 0 0 gnd-1.sym
N 55600 48700 55600 48800 4
N 55600 48800 55700 48800 4
N 56300 38700 56300 38300 4
C 56200 38000 1 0 0 gnd-1.sym
N 57000 38700 57000 38300 4
C 56900 38000 1 0 0 gnd-1.sym
N 57700 38700 57700 38300 4
C 57600 38000 1 0 0 gnd-1.sym
N 55500 39800 55500 39600 4
N 56300 39800 56300 39600 4
N 57000 39800 57000 39600 4
N 57700 39800 57700 39600 4
C 43300 48400 1 0 0 resistor-1.sym
{
T 43600 48800 5 10 0 0 0 0 1
device=RESISTOR
T 43100 48600 5 10 1 1 0 0 1
refdes=R6
T 44000 48600 5 10 1 1 0 0 1
value=680
T 43900 48200 5 10 0 1 0 0 1
footprint=0805
}
C 43300 48100 1 0 0 resistor-1.sym
{
T 43600 48500 5 10 0 0 0 0 1
device=RESISTOR
T 43100 48300 5 10 1 1 0 0 1
refdes=R7
T 44000 48300 5 10 1 1 0 0 1
value=680
T 43900 47900 5 10 0 1 0 0 1
footprint=0805
}
C 43300 47800 1 0 0 resistor-1.sym
{
T 43600 48200 5 10 0 0 0 0 1
device=RESISTOR
T 43100 48000 5 10 1 1 0 0 1
refdes=R8
T 44000 48000 5 10 1 1 0 0 1
value=680
T 43900 47600 5 10 0 1 0 0 1
footprint=0805
}
C 43300 47500 1 0 0 resistor-1.sym
{
T 43600 47900 5 10 0 0 0 0 1
device=RESISTOR
T 43100 47700 5 10 1 1 0 0 1
refdes=R9
T 44000 47700 5 10 1 1 0 0 1
value=680
T 43900 47300 5 10 0 1 0 0 1
footprint=0805
}
N 44200 48500 45600 48500 4
{
T 44700 48500 5 10 1 1 0 0 1
netname=D3_15V
}
N 42900 47600 43300 47600 4
N 42900 47900 43300 47900 4
N 43300 48200 42900 48200 4
N 42900 48500 43300 48500 4
N 55500 40700 55500 41300 4
N 56300 40700 56300 41600 4
N 57000 40700 57000 41900 4
N 57700 40700 57700 42200 4
C 55700 43300 1 0 0 cd4504b-1.sym
{
T 56000 47100 5 10 1 1 0 0 1
device=CD4504B
T 57200 47100 5 10 1 1 0 0 1
footprint=SO16
T 56000 47300 5 10 1 1 0 0 1
refdes=U3
}
C 55400 43400 1 0 0 gnd-1.sym
N 55500 43700 55500 46000 4
N 55500 43900 55700 43900 4
T 55900 37300 9 10 1 0 0 0 2
Arduino drives
RAM Q Outputs
C 32200 39300 1 270 1 capacitor-1.sym
{
T 32900 39500 5 10 0 0 90 2 1
device=CAPACITOR
T 33100 39500 5 10 0 0 90 2 1
symversion=0.1
T 32100 39900 5 10 1 1 0 6 1
refdes=C3
T 32100 39700 5 10 1 1 0 6 1
value=4.7uF
T 32100 39500 5 10 1 1 0 6 1
footprint=0805
T 32100 39300 5 10 1 1 0 6 1
voltage=25V
}
C 32300 38800 1 0 0 gnd-1.sym
N 32400 39300 32400 39100 4
N 32400 40200 32400 40700 4
C 32200 40700 1 0 0 5V-plus-1.sym
N 34900 42400 40100 42400 4
N 40100 42200 40100 42700 4
C 40000 38800 1 0 0 gnd-1.sym
N 40100 41300 40100 41100 4
C 40000 41300 1 270 1 resistor-1.sym
{
T 40400 41600 5 10 0 0 90 2 1
device=RESISTOR
T 40300 42000 5 10 1 1 180 6 1
refdes=R20
T 40300 41800 5 10 1 1 180 6 1
value=3.1K
T 40300 41600 5 10 1 1 180 6 1
footprint=0805
}
N 48300 36700 50500 36700 4
N 50500 36500 50500 36700 4
C 50700 35600 1 90 0 capacitor-1.sym
{
T 50000 35800 5 10 0 0 90 0 1
device=CAPACITOR
T 49800 35800 5 10 0 0 90 0 1
symversion=0.1
T 50800 36200 5 10 1 1 0 0 1
refdes=C11
T 50800 36000 5 10 1 1 0 0 1
value=100NF
T 50800 35800 5 10 1 1 0 0 1
footprint=0805
T 50800 35600 5 10 1 1 0 0 1
voltage=25V
}
C 50400 35100 1 0 0 gnd-1.sym
N 50500 35600 50500 35400 4
C 33600 38300 1 0 0 roe0515s-1.sym
{
T 34500 40200 5 10 1 1 0 0 1
device=ROE-0515S
T 34500 40000 5 10 1 1 0 0 1
footprint=JUMPER4
T 34500 40400 5 10 1 1 0 0 1
refdes=U9
}
C 33300 38800 1 0 0 gnd-1.sym
N 33400 39100 33400 39300 4
N 33600 39300 33400 39300 4
C 36300 38800 1 0 0 gnd-1.sym
N 36400 39100 36400 39300 4
N 36200 39300 36400 39300 4
N 33600 39600 33400 39600 4
N 33400 39600 33400 42100 4
N 36200 39600 36400 39600 4
N 36400 39600 36400 42100 4
T 34200 42700 9 10 1 0 0 0 1
15V or 5V option
N 44200 48200 45600 48200 4
{
T 44700 48200 5 10 1 1 0 0 1
netname=D1_15V
}
N 44200 47900 45600 47900 4
{
T 44700 47900 5 10 1 1 0 0 1
netname=D0_15V
}
N 44200 47600 45600 47600 4
{
T 44700 47600 5 10 1 1 0 0 1
netname=D2_15V
}
N 41400 53700 37700 53700 4
{
T 37800 53700 5 10 1 1 0 0 1
netname=PHI1
}
N 41400 52200 37700 52200 4
{
T 37800 52200 5 10 1 1 0 0 1
netname=PHI2
}
N 41400 53100 37700 53100 4
{
T 37800 53100 5 10 1 1 0 0 1
netname=RESET
}
N 43700 53100 45200 53100 4
{
T 44100 53100 5 10 1 1 0 0 1
netname=RESET_15V
}
N 43700 53700 45200 53700 4
{
T 44100 53700 5 10 1 1 0 0 1
netname=PHI1_15V
}
N 43700 52200 45100 52200 4
{
T 44100 52200 5 10 1 1 0 0 1
netname=PHI2_15V
}
N 43700 53400 45200 53400 4
{
T 44100 53400 5 10 1 1 0 0 1
netname=TEST_15V
}
N 41400 53400 37700 53400 4
{
T 37800 53400 5 10 1 1 0 0 1
netname=TEST
}
N 54200 50000 55700 50000 4
{
T 54300 50000 5 10 1 1 0 0 1
netname=CMRAM0_4004
}
N 54200 50300 55700 50300 4
{
T 54300 50300 5 10 1 1 0 0 1
netname=CMRAM1_4004
}
N 54200 49700 55700 49700 4
{
T 54300 49700 5 10 1 1 0 0 1
netname=CMRAM2_4004
}
N 54200 50600 55700 50600 4
{
T 54300 50600 5 10 1 1 0 0 1
netname=CMRAM3_4004
}
N 54200 49400 55700 49400 4
{
T 54300 49400 5 10 1 1 0 0 1
netname=CMROM_4004
}
N 54200 50900 55700 50900 4
{
T 54300 50900 5 10 1 1 0 0 1
netname=SYNC_4004
}
N 58000 50000 60000 50000 4
{
T 59900 50200 5 10 1 1 180 0 1
netname=CMRAM0_5V
}
N 58000 50300 60000 50300 4
{
T 59900 50500 5 10 1 1 180 0 1
netname=CMRAM1_5V
}
N 58000 49700 60000 49700 4
{
T 59900 49900 5 10 1 1 180 0 1
netname=CMRAM2_5V
}
N 58000 50600 60000 50600 4
{
T 59900 50800 5 10 1 1 180 0 1
netname=CMRAM3_5V
}
N 58000 50900 60000 50900 4
{
T 59900 51100 5 10 1 1 180 0 1
netname=SYNC_5V
}
N 58000 49400 60000 49400 4
{
T 59900 49600 5 10 1 1 180 0 1
netname=CMROM_5V
}
N 54200 45100 55700 45100 4
{
T 54300 45100 5 10 1 1 0 0 1
netname=D0_15V
}
N 54200 45400 55700 45400 4
{
T 54300 45400 5 10 1 1 0 0 1
netname=D1_15V
}
N 54200 44800 55700 44800 4
{
T 54300 44800 5 10 1 1 0 0 1
netname=D2_15V
}
N 54200 45700 55700 45700 4
{
T 54300 45700 5 10 1 1 0 0 1
netname=D3_15V
}
N 55500 46000 55700 46000 4
N 55500 44500 55700 44500 4
T 50800 44500 9 10 1 0 0 0 1
Swizzling to optimize routing
N 58000 45100 60000 45100 4
{
T 59900 45300 5 10 1 1 180 0 1
netname=CPU_D0_5V
}
N 58000 45400 60000 45400 4
{
T 59900 45600 5 10 1 1 180 0 1
netname=CPU_D1_5V
}
N 58000 44800 60000 44800 4
{
T 59900 45000 5 10 1 1 180 0 1
netname=CPU_D2_5V
}
N 58000 45700 60000 45700 4
{
T 59900 45900 5 10 1 1 180 0 1
netname=CPU_D3_5V
}
N 33000 48500 31600 48500 4
{
T 31700 48500 5 10 1 1 0 0 1
netname=TEST
}
N 33000 49100 31600 49100 4
{
T 31700 49100 5 10 1 1 0 0 1
netname=CPU_D3_5V
}
N 33000 50600 31600 50600 4
{
T 31700 50600 5 10 1 1 0 0 1
netname=ARDUINO_D1
}
N 33000 50900 31600 50900 4
{
T 31700 50900 5 10 1 1 0 0 1
netname=ARDUINO_D3
}
N 31600 51200 33000 51200 4
{
T 31700 51200 5 10 1 1 0 0 1
netname=RAM_Q1_5V
}
N 31600 51500 33000 51500 4
{
T 31700 51500 5 10 1 1 0 0 1
netname=RAM_Q3_5V
}
N 31600 50300 33000 50300 4
{
T 31700 50300 5 10 1 1 0 0 1
netname=DRIVE_DBUS
}
N 35500 52100 36900 52100 4
{
T 35700 52100 5 10 1 1 0 0 1
netname=SYNC_5V
}
N 31600 52400 33000 52400 4
{
T 31700 52400 5 10 1 1 0 0 1
netname=CMRAM2_5V
}
N 31600 52700 33000 52700 4
{
T 31700 52700 5 10 1 1 0 0 1
netname=CMRAM0_5V
}
N 33000 48800 31600 48800 4
{
T 31700 48800 5 10 1 1 0 0 1
netname=CPU_D1_5V
}
N 31600 50000 33000 50000 4
{
T 31700 50000 5 10 1 1 0 0 1
netname=PHI1
}
N 32700 53000 33000 53000 4
N 32700 53300 32700 53000 4
N 33000 48200 31600 48200 4
{
T 31700 48200 5 10 1 1 0 0 1
netname=RESET
}
N 36900 49100 35500 49100 4
{
T 35700 49100 5 10 1 1 0 0 1
netname=CPU_D2_5V
}
N 35500 48800 36900 48800 4
{
T 35700 48800 5 10 1 1 0 0 1
netname=CPU_D0_5V
}
N 35500 50900 36900 50900 4
{
T 35700 50900 5 10 1 1 0 0 1
netname=ARDUINO_D2
}
N 35500 50600 36900 50600 4
{
T 35700 50600 5 10 1 1 0 0 1
netname=ARDUINO_D0
}
N 33000 52100 31600 52100 4
{
T 31800 52100 5 10 1 1 0 0 1
netname=CMROM_5V
}
N 36900 52400 35500 52400 4
{
T 35700 52400 5 10 1 1 0 0 1
netname=CMRAM3_5V
}
N 36900 52700 35500 52700 4
{
T 35700 52700 5 10 1 1 0 0 1
netname=CMRAM1_5V
}
N 36900 51200 35500 51200 4
{
T 35700 51200 5 10 1 1 0 0 1
netname=RAM_Q0_5V
}
N 36900 51500 35500 51500 4
{
T 35700 51500 5 10 1 1 0 0 1
netname=RAM_Q2_5V
}
N 35500 50000 37000 50000 4
{
T 36500 50000 5 10 1 1 0 0 1
netname=PHI2
}
C 43800 54600 1 0 0 generic-power.sym
{
T 44000 54850 5 10 1 1 0 3 1
net=P15V:1
}
C 43000 49400 1 0 0 generic-power.sym
{
T 43200 49650 5 10 1 1 0 3 1
net=P15V:1
}
C 39900 42700 1 0 0 generic-power.sym
{
T 40100 42950 5 10 1 1 0 3 1
net=P15V:1
}
C 55200 51800 1 0 0 generic-power.sym
{
T 55400 52050 5 10 1 1 0 3 1
net=P15V:1
}
C 48100 36800 1 0 0 generic-power.sym
{
T 48300 37050 5 10 1 1 0 3 1
net=P15V:1
}
C 55200 46900 1 0 0 generic-power.sym
{
T 55400 47150 5 10 1 1 0 3 1
net=P15V:1
}
C 50000 52300 1 0 0 generic-power.sym
{
T 50200 52550 5 10 1 1 0 3 1
net=P15V:1
}
T 43000 47200 9 10 1 0 0 0 1
Swizzling to optimize routing
T 37800 54200 9 10 1 0 0 0 1
Swizzling to optimize routing
N 57700 42200 52700 42200 4
{
T 52800 42200 5 10 1 1 0 0 1
netname=RAM_Q3_5V
}
N 57000 41900 52700 41900 4
{
T 52800 41900 5 10 1 1 0 0 1
netname=RAM_Q2_5V
}
N 56300 41600 52700 41600 4
{
T 52800 41600 5 10 1 1 0 0 1
netname=RAM_Q1_5V
}
N 55500 41300 52700 41300 4
{
T 52800 41300 5 10 1 1 0 0 1
netname=RAM_Q0_5V
}
C 51100 54300 1 270 0 resistor-1.sym
{
T 51500 54000 5 10 0 0 270 0 1
device=RESISTOR
T 51300 54400 5 10 1 1 270 0 1
refdes=R26
T 51300 53600 5 10 1 1 270 0 1
value=10K
T 50900 53700 5 10 0 1 270 0 1
footprint=0805
}
C 51500 54300 1 270 0 resistor-1.sym
{
T 51900 54000 5 10 0 0 270 0 1
device=RESISTOR
T 51700 54400 5 10 1 1 270 0 1
refdes=R27
T 51700 53600 5 10 1 1 270 0 1
value=10K
T 51300 53700 5 10 0 1 270 0 1
footprint=0805
}
C 51900 54300 1 270 0 resistor-1.sym
{
T 52300 54000 5 10 0 0 270 0 1
device=RESISTOR
T 52100 54400 5 10 1 1 270 0 1
refdes=R28
T 52100 53600 5 10 1 1 270 0 1
value=10K
T 51700 53700 5 10 0 1 270 0 1
footprint=0805
}
C 52300 54300 1 270 0 resistor-1.sym
{
T 52700 54000 5 10 0 0 270 0 1
device=RESISTOR
T 52100 53700 5 10 0 1 270 0 1
footprint=0805
T 52500 54400 5 10 1 1 270 0 1
refdes=R29
T 52500 53600 5 10 1 1 270 0 1
value=10K
}
C 52700 54300 1 270 0 resistor-1.sym
{
T 53100 54000 5 10 0 0 270 0 1
device=RESISTOR
T 52500 53700 5 10 0 1 270 0 1
footprint=0805
T 52900 54400 5 10 1 1 270 0 1
refdes=R30
T 52900 53600 5 10 1 1 270 0 1
value=10K
}
C 53100 54300 1 270 0 resistor-1.sym
{
T 53500 54000 5 10 0 0 270 0 1
device=RESISTOR
T 52900 53700 5 10 0 1 270 0 1
footprint=0805
T 53300 54400 5 10 1 1 270 0 1
refdes=R31
T 53300 53600 5 10 1 1 270 0 1
value=10K
}
C 53500 54300 1 270 0 resistor-1.sym
{
T 53900 54000 5 10 0 0 270 0 1
device=RESISTOR
T 53300 53700 5 10 0 1 270 0 1
footprint=0805
T 53700 54400 5 10 1 1 270 0 1
refdes=R32
T 53700 53600 5 10 1 1 270 0 1
value=10K
}
C 53900 54300 1 270 0 resistor-1.sym
{
T 54300 54000 5 10 0 0 270 0 1
device=RESISTOR
T 53700 53700 5 10 0 1 270 0 1
footprint=0805
T 54100 54400 5 10 1 1 270 0 1
refdes=R33
T 54100 53600 5 10 1 1 270 0 1
value=10K
}
C 54300 54300 1 270 0 resistor-1.sym
{
T 54700 54000 5 10 0 0 270 0 1
device=RESISTOR
T 54100 53700 5 10 0 1 270 0 1
footprint=0805
T 54500 54400 5 10 1 1 270 0 1
refdes=R34
T 54500 53600 5 10 1 1 270 0 1
value=10K
}
C 54700 54300 1 270 0 resistor-1.sym
{
T 55100 54000 5 10 0 0 270 0 1
device=RESISTOR
T 54500 53700 5 10 0 1 270 0 1
footprint=0805
T 54900 54400 5 10 1 1 270 0 1
refdes=R35
T 54900 53600 5 10 1 1 270 0 1
value=10K
}
C 51100 53000 1 0 0 gnd-1.sym
N 51200 53400 51200 53300 4
C 51500 53000 1 0 0 gnd-1.sym
N 51600 53400 51600 53300 4
C 51900 53000 1 0 0 gnd-1.sym
N 52000 53400 52000 53300 4
C 52300 53000 1 0 0 gnd-1.sym
N 52400 53400 52400 53300 4
C 52700 53000 1 0 0 gnd-1.sym
N 52800 53400 52800 53300 4
C 53100 53000 1 0 0 gnd-1.sym
N 53200 53400 53200 53300 4
C 53500 53000 1 0 0 gnd-1.sym
N 53600 53400 53600 53300 4
C 53900 53000 1 0 0 gnd-1.sym
N 54000 53400 54000 53300 4
C 54300 53000 1 0 0 gnd-1.sym
N 54400 53400 54400 53300 4
C 54700 53000 1 0 0 gnd-1.sym
N 54800 53400 54800 53300 4
N 51200 54600 49100 54600 4
{
T 49100 54600 5 10 1 1 0 0 1
netname=CMRAM3_4004
}
N 51600 54800 49100 54800 4
{
T 49100 54800 5 10 1 1 0 0 1
netname=CMRAM2_4004
}
N 49100 55000 52000 55000 4
{
T 49100 55000 5 10 1 1 0 0 1
netname=CMRAM1_4004
}
N 49100 55200 52400 55200 4
{
T 49100 55200 5 10 1 1 0 0 1
netname=CMRAM0_4004
}
N 49100 55400 52800 55400 4
{
T 49200 55400 5 10 1 1 0 0 1
netname=CMROM_4004
}
N 49100 55600 53200 55600 4
{
T 49400 55600 5 10 1 1 0 0 1
netname=SYNC_4004
}
N 53600 55800 49100 55800 4
{
T 49700 55800 5 10 1 1 0 0 1
netname=D3_15V
}
N 49100 56000 54000 56000 4
{
T 49700 56000 5 10 1 1 0 0 1
netname=D2_15V
}
N 54400 56200 49100 56200 4
{
T 49700 56200 5 10 1 1 0 0 1
netname=D1_15V
}
N 49100 56400 54800 56400 4
{
T 49700 56400 5 10 1 1 0 0 1
netname=D0_15V
}
N 51200 54600 51200 54300 4
N 51600 54800 51600 54300 4
N 52000 55000 52000 54300 4
N 52400 55200 52400 54300 4
N 52800 55400 52800 54300 4
N 53200 55600 53200 54300 4
N 53600 55800 53600 54300 4
N 54000 56000 54000 54300 4
N 54400 56200 54400 54300 4
N 54800 56400 54800 54300 4
C 34300 41900 1 270 0 header3-1.sym
{
T 34950 40900 5 10 0 0 270 0 1
device=HEADER3
T 35600 41500 5 10 1 1 270 0 1
refdes=J2
T 34600 41000 5 10 1 1 0 0 1
footprint=JUMPER3
}
N 34900 41900 34900 42400 4
N 36400 42100 35300 42100 4
N 35300 42100 35300 41900 4
C 38100 39200 1 270 1 resistor-1.sym
{
T 38500 39500 5 10 0 0 90 2 1
device=RESISTOR
T 38400 39900 5 10 1 1 180 6 1
refdes=R10
T 38400 39700 5 10 1 1 180 6 1
value=10K
T 38400 39500 5 10 1 1 180 6 1
footprint=0805
}
C 38100 38800 1 0 0 gnd-1.sym
N 38200 39200 38200 39100 4
N 38200 40100 38200 40300 4
N 38200 40300 36400 40300 4
T 38200 38200 9 10 1 0 0 0 2
Dummy Load
For Regulator
N 34500 41900 34500 42100 4
N 34500 42100 33400 42100 4
N 32400 40400 33400 40400 4
T 33700 38300 9 10 1 0 0 0 1
4004 requires 40mA max.
C 37300 39300 1 90 0 capacitor-1.sym
{
T 36600 39500 5 10 0 0 90 0 1
device=CAPACITOR
T 36400 39500 5 10 0 0 90 0 1
symversion=0.1
T 37400 39900 5 10 1 1 0 0 1
refdes=C4
T 37400 39700 5 10 1 1 0 0 1
value=4.7uF
T 37400 39500 5 10 1 1 0 0 1
footprint=0805
T 37400 39300 5 10 1 1 0 0 1
voltage=25V
}
C 37000 38800 1 0 0 gnd-1.sym
N 37100 39300 37100 39100 4
N 37100 40200 37100 40300 4
T 47300 54000 9 10 1 0 0 0 1
Needed for 4004 to drive high (VDD).
N 41000 52500 41400 52500 4
N 41000 52800 41400 52800 4
N 40100 39100 40100 39200 4
N 40100 40100 40100 40200 4
T 41600 40500 9 10 1 0 0 0 2
LED turns on
w/ 15V only.
C 39900 40100 1 270 0 diode-3.sym
{
T 40450 39650 5 10 0 0 270 0 1
device=DIODE
T 40450 39750 5 10 1 1 0 0 1
refdes=D1
T 40400 39200 5 10 1 1 0 0 1
footprint=DIODE_TH_400
T 40400 39400 5 10 1 1 0 0 1
value=5V6
}
