v 20130925 2
C 40000 40000 0 0 0 title-B.sym
C 42900 43000 1 0 0 megahdr2x18-1.sym
{
T 43600 49300 5 10 1 1 0 0 1
device=MEGAHDR2X18
T 43600 49100 5 10 1 1 0 0 1
footprint=HEADER36_1
T 43600 49500 5 10 1 1 0 0 1
refdes=J1
}
C 42400 48800 1 0 0 5V-plus-1.sym
C 45500 48800 1 0 0 5V-plus-1.sym
C 50900 49800 1 0 0 5V-plus-1.sym
C 42500 42800 1 0 0 gnd-1.sym
C 45600 42800 1 0 0 gnd-1.sym
C 51000 48500 1 0 0 gnd-1.sym
N 51100 49600 51100 49800 4
N 51100 49000 51100 48800 4
N 45400 43400 45700 43400 4
N 45700 43400 45700 43100 4
N 42600 43100 42600 43400 4
N 42600 43400 42900 43400 4
N 42600 48800 42600 48500 4
N 42600 48500 42900 48500 4
N 45400 48500 45700 48500 4
N 45700 48500 45700 48800 4
C 47400 40800 1 90 0 capacitor-1.sym
{
T 46700 41000 5 10 0 0 90 0 1
device=CAPACITOR
T 47500 41400 5 10 1 1 0 0 1
refdes=C1
T 46500 41000 5 10 0 0 90 0 1
symversion=0.1
T 47500 41200 5 10 1 1 0 0 1
value=100NF
T 47500 41000 5 10 1 1 0 0 1
footprint=0805
}
C 48600 40800 1 90 0 capacitor-1.sym
{
T 47900 41000 5 10 0 0 90 0 1
device=CAPACITOR
T 48700 41400 5 10 1 1 0 0 1
refdes=C2
T 47700 41000 5 10 0 0 90 0 1
symversion=0.1
T 48700 41200 5 10 1 1 0 0 1
value=100NF
T 48700 41000 5 10 1 1 0 0 1
footprint=0805
}
C 47000 41900 1 0 0 5V-plus-1.sym
C 47100 40300 1 0 0 gnd-1.sym
C 48300 40300 1 0 0 gnd-1.sym
N 47200 40800 47200 40600 4
N 48400 40800 48400 40600 4
N 47200 41900 47200 41700 4
N 48400 41700 48400 41800 4
N 48400 41800 47200 41800 4
U 41300 49000 41300 46200 10 1
N 42900 48200 41500 48200 4
{
T 41700 48200 5 10 1 1 0 0 1
netname=A0
}
C 41500 48200 1 90 0 busripper-1.sym
{
T 41100 48200 5 8 0 0 90 0 1
device=none
}
N 42900 47900 41500 47900 4
{
T 41700 47900 5 10 1 1 0 0 1
netname=A2
}
C 41500 47900 1 90 0 busripper-1.sym
{
T 41100 47900 5 8 0 0 90 0 1
device=none
}
N 42900 47600 41500 47600 4
{
T 41700 47600 5 10 1 1 0 0 1
netname=A4
}
C 41500 47600 1 90 0 busripper-1.sym
{
T 41100 47600 5 8 0 0 90 0 1
device=none
}
N 42900 47300 41500 47300 4
{
T 41700 47300 5 10 1 1 0 0 1
netname=A6
}
C 41500 47300 1 90 0 busripper-1.sym
{
T 41100 47300 5 8 0 0 90 0 1
device=none
}
U 41300 49000 40400 49000 10 0
{
T 40400 49100 5 10 1 1 0 0 1
netname=ADDR
}
U 47000 46200 47000 49000 10 1
U 47000 49000 47900 49000 10 0
{
T 47400 49100 5 10 1 1 0 0 1
netname=ADDR
}
N 45400 47300 46800 47300 4
{
T 46400 47300 5 10 1 1 0 0 1
netname=A7
}
C 46800 47300 1 0 0 busripper-1.sym
{
T 46800 47700 5 8 0 0 0 0 1
device=none
}
N 45400 47600 46800 47600 4
{
T 46400 47600 5 10 1 1 0 0 1
netname=A5
}
C 46800 47600 1 0 0 busripper-1.sym
{
T 46800 48000 5 8 0 0 0 0 1
device=none
}
N 45400 47900 46800 47900 4
{
T 46400 47900 5 10 1 1 0 0 1
netname=A3
}
C 46800 47900 1 0 0 busripper-1.sym
{
T 46800 48300 5 8 0 0 0 0 1
device=none
}
N 45400 48200 46800 48200 4
{
T 46400 48200 5 10 1 1 0 0 1
netname=A1
}
C 46800 48200 1 0 0 busripper-1.sym
{
T 46800 48600 5 8 0 0 0 0 1
device=none
}
N 42900 46100 41500 46100 4
{
T 41700 46100 5 10 1 1 0 0 1
netname=A9
}
C 41500 46100 1 90 0 busripper-1.sym
{
T 41100 46100 5 8 0 0 90 0 1
device=none
}
N 42900 46400 41500 46400 4
{
T 41700 46400 5 10 1 1 0 0 1
netname=A11
}
C 41500 46400 1 90 0 busripper-1.sym
{
T 41100 46400 5 8 0 0 90 0 1
device=none
}
N 42900 46700 41900 46700 4
{
T 42000 46700 5 10 1 1 0 0 1
netname=\_WDS\_
}
N 42900 47000 41900 47000 4
{
T 42000 47000 5 10 1 1 0 0 1
netname=\_RDS\_
}
N 45400 46100 46800 46100 4
{
T 46400 46100 5 10 1 1 0 0 1
netname=A8
}
C 46800 46100 1 0 0 busripper-1.sym
{
T 46800 46500 5 8 0 0 0 0 1
device=none
}
N 45400 46400 46800 46400 4
{
T 46400 46400 5 10 1 1 0 0 1
netname=A10
}
C 46800 46400 1 0 0 busripper-1.sym
{
T 46800 46800 5 8 0 0 0 0 1
device=none
}
N 45400 46700 46300 46700 4
{
T 45900 46700 5 10 1 1 0 0 1
netname=\_ADS\_
}
N 45400 47000 46300 47000 4
{
T 45900 47000 5 10 1 1 0 0 1
netname=SOUT
}
N 42900 45500 41700 45500 4
{
T 41700 45500 5 10 1 1 0 0 1
netname=SENSE-A
}
N 46600 45800 45400 45800 4
{
T 45800 45800 5 10 1 1 0 0 1
netname=SENSE-B
}
N 46400 45500 45400 45500 4
{
T 45800 45500 5 10 1 1 0 0 1
netname=SIN
}
N 42900 45800 41700 45800 4
{
T 41700 45800 5 10 1 1 0 0 1
netname=\_RESET\_
}
U 41300 45500 40400 45500 10 0
{
T 40400 45600 5 10 1 1 0 0 1
netname=DATA
}
U 41300 45500 41300 44000 10 -1
N 42900 45200 41500 45200 4
{
T 41700 45200 5 10 1 1 0 0 1
netname=D7
}
C 41500 45200 1 180 0 busripper-1.sym
{
T 41500 44800 5 8 0 0 180 0 1
device=none
}
N 42900 44900 41500 44900 4
{
T 41700 44900 5 10 1 1 0 0 1
netname=D5
}
C 41500 44900 1 180 0 busripper-1.sym
{
T 41500 44500 5 8 0 0 180 0 1
device=none
}
N 42900 44600 41500 44600 4
{
T 41700 44600 5 10 1 1 0 0 1
netname=D3
}
C 41500 44600 1 180 0 busripper-1.sym
{
T 41500 44200 5 8 0 0 180 0 1
device=none
}
N 42900 44300 41500 44300 4
{
T 41700 44300 5 10 1 1 0 0 1
netname=D1
}
C 41500 44300 1 180 0 busripper-1.sym
{
T 41500 43900 5 8 0 0 180 0 1
device=none
}
U 47900 45500 47000 45500 10 0
{
T 47400 45600 5 10 1 1 0 0 1
netname=DATA
}
U 47000 45500 47000 44000 10 -1
N 45400 45200 46800 45200 4
{
T 46400 45200 5 10 1 1 0 0 1
netname=D6
}
C 46800 45200 1 270 0 busripper-1.sym
{
T 47200 45200 5 8 0 0 270 0 1
device=none
}
N 45400 44900 46800 44900 4
{
T 46400 44900 5 10 1 1 0 0 1
netname=D4
}
C 46800 44900 1 270 0 busripper-1.sym
{
T 47200 44900 5 8 0 0 270 0 1
device=none
}
N 45400 44600 46800 44600 4
{
T 46400 44600 5 10 1 1 0 0 1
netname=D2
}
C 46800 44600 1 270 0 busripper-1.sym
{
T 47200 44600 5 8 0 0 270 0 1
device=none
}
N 45400 44300 46800 44300 4
{
T 46400 44300 5 10 1 1 0 0 1
netname=D0
}
C 46800 44300 1 270 0 busripper-1.sym
{
T 47200 44300 5 8 0 0 270 0 1
device=none
}
N 42900 44000 41700 44000 4
{
T 41700 44000 5 10 1 1 0 0 1
netname=FLAG-2
}
N 46600 44000 45400 44000 4
{
T 45800 44000 5 10 1 1 0 0 1
netname=FLAG-1
}
N 51300 48100 49900 48100 4
{
T 49900 48100 5 10 1 1 0 0 1
netname=CLK
}
N 51300 47500 50100 47500 4
{
T 50100 47500 5 10 1 1 0 0 1
netname=\_RESET\_
}
N 51300 45100 50100 45100 4
{
T 50100 45100 5 10 1 1 0 0 1
netname=SENSE-B
}
N 51300 45400 50100 45400 4
{
T 50100 45400 5 10 1 1 0 0 1
netname=SENSE-A
}
C 45900 43600 1 0 0 resistor-1.sym
{
T 46200 44000 5 10 0 0 0 0 1
device=RESISTOR
T 46000 43400 5 10 1 1 0 0 1
refdes=R1
T 46000 43200 5 10 1 1 0 0 1
value=33
T 46300 43200 5 10 1 1 0 0 1
footprint=0805
}
N 45400 43700 45900 43700 4
{
T 44900 43700 5 10 0 1 0 0 1
netname=CLK_E_R
}
N 46800 43700 47700 43700 4
{
T 47300 43700 5 10 1 1 0 0 1
netname=CLK
}
T 50100 40700 9 16 1 0 0 0 1
SC/MP RETRO SHIELD FOR ARDUINO MEGA
T 49500 41000 9 10 1 0 0 0 2
Released under the Creative Commons Attribution Share-Alike 4.0 License
https://creativecommons.org/licenses/by-sa/4.0/
T 54000 40100 9 10 1 0 0 0 1
YUSUF POLAT / ERTURK KOCALAR
T 54000 40400 9 10 1 0 0 0 1
REV A2 - 2023/10/02
T 50900 40100 9 10 1 0 0 0 1
1
T 51600 40100 9 10 1 0 0 0 1
1
T 50800 40400 9 10 1 0 0 0 1
K8060.SCH
U 49700 44800 48800 44800 10 0
{
T 48800 44900 5 10 1 1 0 0 1
netname=DATA
}
U 49700 44800 49700 42200 10 -1
N 51300 44600 49900 44600 4
{
T 50100 44600 5 10 1 1 0 0 1
netname=D7
}
C 49900 44600 1 180 0 busripper-1.sym
{
T 49900 44200 5 8 0 0 180 0 1
device=none
}
N 51300 44300 49900 44300 4
{
T 50100 44300 5 10 1 1 0 0 1
netname=D6
}
C 49900 44300 1 180 0 busripper-1.sym
{
T 49900 43900 5 8 0 0 180 0 1
device=none
}
N 51300 44000 49900 44000 4
{
T 50100 44000 5 10 1 1 0 0 1
netname=D5
}
C 49900 44000 1 180 0 busripper-1.sym
{
T 49900 43600 5 8 0 0 180 0 1
device=none
}
N 51300 43700 49900 43700 4
{
T 50100 43700 5 10 1 1 0 0 1
netname=D4
}
C 49900 43700 1 180 0 busripper-1.sym
{
T 49900 43300 5 8 0 0 180 0 1
device=none
}
N 51300 43400 49900 43400 4
{
T 50100 43400 5 10 1 1 0 0 1
netname=D3
}
C 49900 43400 1 180 0 busripper-1.sym
{
T 49900 43000 5 8 0 0 180 0 1
device=none
}
N 51300 43100 49900 43100 4
{
T 50100 43100 5 10 1 1 0 0 1
netname=D2
}
C 49900 43100 1 180 0 busripper-1.sym
{
T 49900 42700 5 8 0 0 180 0 1
device=none
}
N 51300 42800 49900 42800 4
{
T 50100 42800 5 10 1 1 0 0 1
netname=D1
}
C 49900 42800 1 180 0 busripper-1.sym
{
T 49900 42400 5 8 0 0 180 0 1
device=none
}
N 51300 42500 49900 42500 4
{
T 50100 42500 5 10 1 1 0 0 1
netname=D0
}
C 49900 42500 1 180 0 busripper-1.sym
{
T 49900 42100 5 8 0 0 180 0 1
device=none
}
N 55800 45100 54600 45100 4
{
T 55200 45100 5 10 1 1 0 0 1
netname=\_RDS\_
}
C 50800 48900 1 90 0 resistor-1.sym
{
T 50400 49200 5 10 0 0 90 0 1
device=RESISTOR
T 50500 49600 5 10 1 1 180 0 1
refdes=R3
T 50200 49300 5 10 1 1 0 0 1
value=680
T 50100 49100 5 10 1 1 0 0 1
footprint=0805
}
C 49000 49800 1 0 0 led-1.sym
{
T 49800 50400 5 10 0 0 0 0 1
device=LED
T 49500 50600 5 10 1 1 180 0 1
refdes=LED1
T 49800 50600 5 10 0 0 0 0 1
symversion=0.1
T 49000 49800 5 10 0 0 90 0 1
footprint=LED3
}
T 49400 50400 9 10 1 0 180 0 1
RED
U 56200 46100 56200 50200 10 1
U 56200 50200 56700 50200 10 0
{
T 56200 50300 5 10 1 1 0 0 1
netname=ADDR
}
N 54600 48700 56000 48700 4
{
T 55600 48700 5 10 1 1 0 0 1
netname=A9
}
C 56000 48700 1 0 0 busripper-1.sym
{
T 56000 49100 5 8 0 0 0 0 1
device=none
}
N 54600 49000 56000 49000 4
{
T 55600 49000 5 10 1 1 0 0 1
netname=A10
}
C 56000 49000 1 0 0 busripper-1.sym
{
T 56000 49400 5 8 0 0 0 0 1
device=none
}
N 54600 49300 56000 49300 4
{
T 55600 49300 5 10 1 1 0 0 1
netname=A11
}
C 56000 49300 1 0 0 busripper-1.sym
{
T 56000 49700 5 8 0 0 0 0 1
device=none
}
N 54600 48400 56000 48400 4
{
T 55600 48400 5 10 1 1 0 0 1
netname=A8
}
N 54600 48100 56000 48100 4
{
T 55600 48100 5 10 1 1 0 0 1
netname=A7
}
N 54600 47800 56000 47800 4
{
T 55600 47800 5 10 1 1 0 0 1
netname=A6
}
N 54600 47500 56000 47500 4
{
T 55600 47500 5 10 1 1 0 0 1
netname=A5
}
N 54600 47200 56000 47200 4
{
T 55600 47200 5 10 1 1 0 0 1
netname=A4
}
N 54600 46900 56000 46900 4
{
T 55600 46900 5 10 1 1 0 0 1
netname=A3
}
N 54600 46600 56000 46600 4
{
T 55600 46600 5 10 1 1 0 0 1
netname=A2
}
N 54600 46300 56000 46300 4
{
T 55600 46300 5 10 1 1 0 0 1
netname=A1
}
N 54600 46000 56000 46000 4
{
T 55600 46000 5 10 1 1 0 0 1
netname=A0
}
C 56000 48400 1 0 0 busripper-1.sym
{
T 56000 48800 5 8 0 0 0 0 1
device=none
}
C 56000 48100 1 0 0 busripper-1.sym
{
T 56000 48500 5 8 0 0 0 0 1
device=none
}
C 56000 47800 1 0 0 busripper-1.sym
{
T 56000 48200 5 8 0 0 0 0 1
device=none
}
C 56000 47500 1 0 0 busripper-1.sym
{
T 56000 47900 5 8 0 0 0 0 1
device=none
}
C 56000 47200 1 0 0 busripper-1.sym
{
T 56000 47600 5 8 0 0 0 0 1
device=none
}
C 56000 46900 1 0 0 busripper-1.sym
{
T 56000 47300 5 8 0 0 0 0 1
device=none
}
C 56000 46600 1 0 0 busripper-1.sym
{
T 56000 47000 5 8 0 0 0 0 1
device=none
}
C 56000 46300 1 0 0 busripper-1.sym
{
T 56000 46700 5 8 0 0 0 0 1
device=none
}
C 56000 46000 1 0 0 busripper-1.sym
{
T 56000 46400 5 8 0 0 0 0 1
device=none
}
C 48500 48000 1 0 0 gnd-1.sym
C 49700 48600 1 180 0 capacitor-1.sym
{
T 49100 49000 5 10 1 1 0 0 1
refdes=C3
T 49100 48800 5 10 1 1 0 0 1
value=22PF
T 49100 48600 5 10 1 1 0 0 1
footprint=0805
T 49500 47900 5 10 0 0 180 0 1
device=CAPACITOR
T 49500 47700 5 10 0 0 180 0 1
symversion=0.1
}
N 49700 48400 50400 48400 4
N 50400 48400 50400 48100 4
N 51300 48400 50700 48400 4
{
T 50700 48600 5 10 0 0 90 0 1
netname=BA_R
}
N 50700 49800 50700 50000 4
{
T 50700 49700 5 10 0 0 90 0 1
netname=BA_LED
}
N 50700 50000 49900 50000 4
C 48800 50200 1 0 1 5V-plus-1.sym
N 48800 48400 48600 48400 4
N 48600 48400 48600 48300 4
G 45500 40853 900 947 0 0 0
./symbols/osha-logo.svg
N 55800 44800 54600 44800 4
{
T 55200 44800 5 10 1 1 0 0 1
netname=\_WDS\_
}
N 55800 45400 54600 45400 4
{
T 55200 45400 5 10 1 1 0 0 1
netname=\_ADS\_
}
N 42900 43700 41700 43700 4
{
T 41700 43700 5 10 1 1 0 0 1
netname=FLAG-0
}
N 51100 49000 51300 49000 4
N 51100 49600 51300 49600 4
C 48900 46800 1 0 0 resistor-1.sym
{
T 49200 47200 5 10 0 0 0 0 1
device=RESISTOR
T 48800 47000 5 10 1 1 0 0 1
refdes=R2
T 49600 46700 5 10 1 1 0 0 1
footprint=0805
T 48800 46700 5 10 1 1 0 0 1
value=5.6K
}
C 48400 47400 1 0 0 5V-plus-1.sym
N 48600 46900 48600 47400 4
N 48600 46900 48900 46900 4
N 49800 46900 51300 46900 4
N 51000 46600 51000 47200 4
C 50900 45600 1 0 0 gnd-1.sym
N 51300 46000 51000 46000 4
N 51000 46000 51000 45900 4
N 55800 43700 54600 43700 4
{
T 55200 43700 5 10 1 1 0 0 1
netname=SOUT
}
N 55800 44000 54600 44000 4
{
T 55200 44000 5 10 1 1 0 0 1
netname=SIN
}
N 55800 42800 54600 42800 4
{
T 55200 42800 5 10 1 1 0 0 1
netname=FLAG-1
}
N 55800 42500 54600 42500 4
{
T 55200 42500 5 10 1 1 0 0 1
netname=FLAG-2
}
N 55800 43100 54600 43100 4
{
T 55200 43100 5 10 1 1 0 0 1
netname=FLAG-0
}
N 50700 48400 50700 48900 4
N 48600 50200 48600 50000 4
N 48600 50000 49000 50000 4
C 51300 41600 1 0 0 ins8060-1.sym
{
T 52700 46700 5 10 1 1 0 0 1
device=INS8060
T 52700 46500 5 10 1 1 0 0 1
footprint=DIP40-ZIF
T 52700 46900 5 10 1 1 0 0 1
refdes=U1
}
T 40400 41000 9 10 1 0 0 0 3
2020/10/25: RELEASE TO FAB.
2023/10/02: R2=5.6 KOHM
                    BRING-UP COMPLETE.
N 51300 46300 50100 46300 4
{
T 50100 46300 5 10 1 1 0 0 1
netname=\_ENOUT\_
}
N 48600 47200 51300 47200 4
N 51300 46600 51000 46600 4
T 43000 42500 9 10 1 0 0 0 2
PG0 MUST BE OUTPUT
FOR TEENSY COMPATIBILITY.
