v 20130925 2
C 40000 40000 0 0 0 title-B.sym
C 42900 43000 1 0 0 megahdr2x18-1.sym
{
T 43600 49300 5 10 1 1 0 0 1
device=MEGAHDR2X18
T 43600 49100 5 10 1 1 0 0 1
footprint=HEADER36_1
T 43600 49500 5 10 1 1 0 0 1
refdes=J1
}
C 42400 48800 1 0 0 5V-plus-1.sym
C 45500 48800 1 0 0 5V-plus-1.sym
C 52700 50600 1 0 0 5V-plus-1.sym
C 42500 42800 1 0 0 gnd-1.sym
C 45600 42800 1 0 0 gnd-1.sym
C 52800 41400 1 0 0 gnd-1.sym
N 52900 50500 52900 50600 4
N 52900 41800 52900 41700 4
N 45400 43400 45700 43400 4
N 45700 43400 45700 43100 4
N 42600 43100 42600 43400 4
N 42600 43400 42900 43400 4
N 42600 48800 42600 48500 4
N 42600 48500 42900 48500 4
N 45400 48500 45700 48500 4
N 45700 48500 45700 48800 4
C 47400 40800 1 90 0 capacitor-1.sym
{
T 46700 41000 5 10 0 0 90 0 1
device=CAPACITOR
T 47500 41400 5 10 1 1 0 0 1
refdes=C1
T 46500 41000 5 10 0 0 90 0 1
symversion=0.1
T 47500 41200 5 10 1 1 0 0 1
value=100NF
T 47500 41000 5 10 1 1 0 0 1
footprint=0805
}
C 48500 40800 1 90 0 capacitor-1.sym
{
T 47800 41000 5 10 0 0 90 0 1
device=CAPACITOR
T 48600 41400 5 10 1 1 0 0 1
refdes=C2
T 47600 41000 5 10 0 0 90 0 1
symversion=0.1
T 48600 41200 5 10 1 1 0 0 1
value=100NF
T 48600 41000 5 10 1 1 0 0 1
footprint=0805
}
C 47000 41900 1 0 0 5V-plus-1.sym
C 47100 40300 1 0 0 gnd-1.sym
C 48200 40300 1 0 0 gnd-1.sym
N 47200 40800 47200 40600 4
N 48300 40800 48300 40600 4
N 47200 41900 47200 41700 4
N 48300 41700 48300 41800 4
N 48300 41800 47200 41800 4
C 41500 46100 1 90 0 busripper-1.sym
{
T 41100 46100 5 8 0 0 90 0 1
device=none
}
C 41500 46400 1 90 0 busripper-1.sym
{
T 41100 46400 5 8 0 0 90 0 1
device=none
}
C 41500 46700 1 90 0 busripper-1.sym
{
T 41100 46700 5 8 0 0 90 0 1
device=none
}
C 46800 46100 1 0 0 busripper-1.sym
{
T 46800 46500 5 8 0 0 0 0 1
device=none
}
C 46800 46400 1 0 0 busripper-1.sym
{
T 46800 46800 5 8 0 0 0 0 1
device=none
}
C 46800 46700 1 0 0 busripper-1.sym
{
T 46800 47100 5 8 0 0 0 0 1
device=none
}
C 46800 47000 1 0 0 busripper-1.sym
{
T 46800 47400 5 8 0 0 0 0 1
device=none
}
N 42900 45500 41700 45500 4
{
T 41800 45500 5 10 1 1 0 0 1
netname=RESET
}
N 46600 45800 45400 45800 4
{
T 46100 45800 5 10 1 1 0 0 1
netname=INTACK
}
N 46600 45500 45400 45500 4
{
T 46100 45500 5 10 1 1 0 0 1
netname=\_INTREQ\_
}
N 42900 45800 41700 45800 4
{
T 41800 45800 5 10 1 1 0 0 1
netname=SENSE
}
N 42900 44000 41700 44000 4
{
T 41800 44000 5 10 1 1 0 0 1
netname=OPREQ
}
N 46500 44000 45400 44000 4
{
T 46000 44000 5 10 1 1 0 0 1
netname=R/\_W\_
}
N 51200 49600 50000 49600 4
{
T 50000 49600 5 10 1 1 0 0 1
netname=CLK
}
N 45400 43700 46500 43700 4
{
T 46000 43700 5 10 1 1 0 0 1
netname=M/\_IO\_
}
C 40900 43600 1 0 0 resistor-1.sym
{
T 41200 44000 5 10 0 0 0 0 1
device=RESISTOR
T 41000 43400 5 10 1 1 0 0 1
refdes=R1
T 41000 43200 5 10 1 1 0 0 1
value=33
T 41300 43200 5 10 1 1 0 0 1
footprint=0805
}
N 41800 43700 42900 43700 4
{
T 41900 43700 5 10 1 1 0 0 1
netname=CLK_R
}
N 40200 43700 40900 43700 4
{
T 40200 43700 5 10 1 1 0 0 1
netname=CLK
}
T 50100 40700 9 16 1 0 0 0 1
2650 RETRO SHIELD FOR ARDUINO MEGA
T 49500 41000 9 10 1 0 0 0 2
Released under the Creative Commons Attribution Share-Alike 4.0 License
https://creativecommons.org/licenses/by-sa/4.0/
T 54000 40100 9 10 1 0 0 0 1
ERTURK KOCALAR
T 54000 40400 9 10 1 0 0 0 1
REV A - 2019/10/17
T 50900 40100 9 10 1 0 0 0 1
1
T 51600 40100 9 10 1 0 0 0 1
1
T 50800 40400 9 10 1 0 0 0 1
K2650.SCH
C 41800 50600 1 180 0 led-1.sym
{
T 41000 50000 5 10 0 0 0 8 1
device=LED
T 41400 49900 5 10 1 1 180 8 1
refdes=LED1
T 41000 49800 5 10 0 0 0 8 1
symversion=0.1
T 41800 50600 5 10 0 0 90 8 1
footprint=LED3
}
T 41400 49700 9 10 1 0 0 0 1
RED
U 56100 45700 56100 49600 10 1
U 56100 49600 56600 49600 10 0
{
T 56400 49700 5 10 1 1 0 0 1
netname=A
}
C 55900 48400 1 0 0 busripper-1.sym
{
T 55900 48800 5 8 0 0 0 0 1
device=none
}
C 55900 48700 1 0 0 busripper-1.sym
{
T 55900 49100 5 8 0 0 0 0 1
device=none
}
C 55900 49000 1 0 0 busripper-1.sym
{
T 55900 49400 5 8 0 0 0 0 1
device=none
}
C 55900 49300 1 0 0 busripper-1.sym
{
T 55900 49700 5 8 0 0 0 0 1
device=none
}
C 55900 47500 1 0 0 busripper-1.sym
{
T 55900 47900 5 8 0 0 0 0 1
device=none
}
C 55900 47800 1 0 0 busripper-1.sym
{
T 55900 48200 5 8 0 0 0 0 1
device=none
}
C 55900 48100 1 0 0 busripper-1.sym
{
T 55900 48500 5 8 0 0 0 0 1
device=none
}
C 55900 47200 1 0 0 busripper-1.sym
{
T 55900 47600 5 8 0 0 0 0 1
device=none
}
C 49400 49900 1 0 0 gnd-1.sym
C 50600 50500 1 180 0 capacitor-1.sym
{
T 49800 50600 5 10 1 1 0 0 1
refdes=C3
T 50200 50600 5 10 1 1 0 0 1
value=22PF
T 50000 49900 5 10 1 1 0 0 1
footprint=0805
T 50400 49800 5 10 0 0 180 0 1
device=CAPACITOR
T 50400 49600 5 10 0 0 180 0 1
symversion=0.1
}
N 49500 50200 49500 50300 4
N 49500 50300 49700 50300 4
N 50600 50300 50900 50300 4
N 50900 50300 50900 49600 4
G 45500 40853 900 947 0 0 0
./symbols/osha-logo.svg
N 54500 47200 55900 47200 4
{
T 55300 47200 5 10 1 1 0 0 1
netname=AD7
}
N 54500 47500 55900 47500 4
{
T 55300 47500 5 10 1 1 0 0 1
netname=AD6
}
N 54500 47800 55900 47800 4
{
T 55300 47800 5 10 1 1 0 0 1
netname=AD5
}
N 54500 48100 55900 48100 4
{
T 55300 48100 5 10 1 1 0 0 1
netname=AD4
}
N 54500 48400 55900 48400 4
{
T 55300 48400 5 10 1 1 0 0 1
netname=AD3
}
N 54500 48700 55900 48700 4
{
T 55300 48700 5 10 1 1 0 0 1
netname=AD2
}
N 54500 49000 55900 49000 4
{
T 55300 49000 5 10 1 1 0 0 1
netname=AD1
}
N 54500 49300 55900 49300 4
{
T 55300 49300 5 10 1 1 0 0 1
netname=AD0
}
N 55700 44200 54500 44200 4
{
T 54900 44200 5 10 1 1 0 0 1
netname=M/\_IO\_
}
C 42200 50300 1 0 0 resistor-1.sym
{
T 42500 50700 5 10 0 0 0 0 1
device=RESISTOR
T 42500 50600 5 10 1 1 0 0 1
refdes=R2
T 42200 50100 5 10 1 1 0 0 1
value=680
T 42800 50100 5 10 1 1 0 0 1
footprint=0805
}
N 51200 42700 50800 42700 4
N 49300 46600 51200 46600 4
N 51200 47500 50000 47500 4
{
T 50000 47500 5 10 1 1 0 0 1
netname=\_INTREQ\_
}
N 50700 46000 51200 46000 4
U 47000 48500 47900 48500 10 0
{
T 47400 48600 5 10 1 1 0 0 1
netname=A
}
U 47000 46200 47000 48500 10 1
U 41300 48500 40400 48500 10 0
{
T 40400 48600 5 10 1 1 0 0 1
netname=A
}
U 41300 48500 41300 46200 10 1
N 55700 43900 54500 43900 4
{
T 54900 43900 5 10 1 1 0 0 1
netname=R/\_W\_
}
N 55700 43600 54500 43600 4
{
T 54900 43600 5 10 1 1 0 0 1
netname=OPREQ
}
C 40400 49900 1 0 0 gnd-1.sym
C 49100 46800 1 0 0 5V-plus-1.sym
N 49300 46800 49300 46600 4
C 50600 45600 1 0 0 gnd-1.sym
N 50700 45900 50700 46300 4
N 45400 45200 46800 45200 4
{
T 46200 45200 5 10 1 1 0 0 1
netname=D6
}
N 45400 44900 46800 44900 4
{
T 46200 44900 5 10 1 1 0 0 1
netname=D4
}
N 45400 44600 46800 44600 4
{
T 46200 44600 5 10 1 1 0 0 1
netname=D2
}
N 45400 44300 46800 44300 4
{
T 46200 44300 5 10 1 1 0 0 1
netname=D0
}
C 46800 44300 1 0 0 busripper-1.sym
{
T 46800 44700 5 8 0 0 0 0 1
device=none
}
C 46800 44600 1 0 0 busripper-1.sym
{
T 46800 45000 5 8 0 0 0 0 1
device=none
}
C 46800 44900 1 0 0 busripper-1.sym
{
T 46800 45300 5 8 0 0 0 0 1
device=none
}
C 46800 45200 1 0 0 busripper-1.sym
{
T 46800 45600 5 8 0 0 0 0 1
device=none
}
U 47000 44400 47000 45500 10 1
U 47000 45500 47900 45500 10 0
{
T 47400 45600 5 10 1 1 0 0 1
netname=D
}
U 41300 45500 40400 45500 10 0
{
T 40400 45600 5 10 1 1 0 0 1
netname=D
}
N 42900 44300 41500 44300 4
{
T 41600 44300 5 10 1 1 0 0 1
netname=D1
}
C 41500 44300 1 90 0 busripper-1.sym
{
T 41100 44300 5 8 0 0 90 0 1
device=none
}
N 42900 44600 41500 44600 4
{
T 41600 44600 5 10 1 1 0 0 1
netname=D3
}
C 41500 44600 1 90 0 busripper-1.sym
{
T 41100 44600 5 8 0 0 90 0 1
device=none
}
N 42900 44900 41500 44900 4
{
T 41600 44900 5 10 1 1 0 0 1
netname=D5
}
C 41500 44900 1 90 0 busripper-1.sym
{
T 41100 44900 5 8 0 0 90 0 1
device=none
}
N 42900 45200 41500 45200 4
{
T 41600 45200 5 10 1 1 0 0 1
netname=D7
}
C 41500 45200 1 90 0 busripper-1.sym
{
T 41100 45200 5 8 0 0 90 0 1
device=none
}
U 41300 45500 41300 44400 10 1
N 51200 49000 50000 49000 4
{
T 50000 49000 5 10 1 1 0 0 1
netname=RESET
}
N 51200 48400 50000 48400 4
{
T 50000 48400 5 10 1 1 0 0 1
netname=FLAG
}
N 51200 48100 50000 48100 4
{
T 50000 48100 5 10 1 1 0 0 1
netname=SENSE
}
N 51200 46300 50700 46300 4
C 55900 46900 1 0 0 busripper-1.sym
{
T 55900 47300 5 8 0 0 0 0 1
device=none
}
N 54500 46900 55900 46900 4
{
T 55300 46900 5 10 1 1 0 0 1
netname=AD8
}
C 55900 46600 1 0 0 busripper-1.sym
{
T 55900 47000 5 8 0 0 0 0 1
device=none
}
N 54500 46600 55900 46600 4
{
T 55300 46600 5 10 1 1 0 0 1
netname=AD9
}
C 55900 46300 1 0 0 busripper-1.sym
{
T 55900 46700 5 8 0 0 0 0 1
device=none
}
N 54500 46300 55900 46300 4
{
T 55300 46300 5 10 1 1 0 0 1
netname=AD10
}
C 55900 46000 1 0 0 busripper-1.sym
{
T 55900 46400 5 8 0 0 0 0 1
device=none
}
N 54500 46000 55900 46000 4
{
T 55300 46000 5 10 1 1 0 0 1
netname=AD11
}
C 55900 45700 1 0 0 busripper-1.sym
{
T 55900 46100 5 8 0 0 0 0 1
device=none
}
N 54500 45700 55900 45700 4
{
T 55300 45700 5 10 1 1 0 0 1
netname=AD12
}
U 49600 45700 49200 45700 10 0
{
T 49200 45800 5 10 1 1 0 0 1
netname=D
}
C 49800 45400 1 90 0 busripper-1.sym
{
T 49400 45400 5 8 0 0 90 0 1
device=none
}
C 49800 45100 1 90 0 busripper-1.sym
{
T 49400 45100 5 8 0 0 90 0 1
device=none
}
C 49800 44800 1 90 0 busripper-1.sym
{
T 49400 44800 5 8 0 0 90 0 1
device=none
}
C 49800 44500 1 90 0 busripper-1.sym
{
T 49400 44500 5 8 0 0 90 0 1
device=none
}
U 49600 45700 49600 43300 10 1
N 51200 44800 49800 44800 4
{
T 49900 44800 5 10 1 1 0 0 1
netname=D2
}
N 51200 45100 49800 45100 4
{
T 49900 45100 5 10 1 1 0 0 1
netname=D1
}
N 51200 45400 49800 45400 4
{
T 49900 45400 5 10 1 1 0 0 1
netname=D0
}
N 51200 44500 49800 44500 4
{
T 49900 44500 5 10 1 1 0 0 1
netname=D3
}
C 49800 44200 1 90 0 busripper-1.sym
{
T 49400 44200 5 8 0 0 90 0 1
device=none
}
N 51200 44200 49800 44200 4
{
T 49900 44200 5 10 1 1 0 0 1
netname=D4
}
C 49800 43900 1 90 0 busripper-1.sym
{
T 49400 43900 5 8 0 0 90 0 1
device=none
}
N 51200 43900 49800 43900 4
{
T 49900 43900 5 10 1 1 0 0 1
netname=D5
}
C 49800 43600 1 90 0 busripper-1.sym
{
T 49400 43600 5 8 0 0 90 0 1
device=none
}
N 51200 43600 49800 43600 4
{
T 49900 43600 5 10 1 1 0 0 1
netname=D6
}
C 49800 43300 1 90 0 busripper-1.sym
{
T 49400 43300 5 8 0 0 90 0 1
device=none
}
N 51200 43300 49800 43300 4
{
T 49900 43300 5 10 1 1 0 0 1
netname=D7
}
N 55700 45100 54500 45100 4
{
T 54700 45100 5 10 1 1 0 0 1
netname=AD13-D/\_C\_
}
N 55700 44800 54500 44800 4
{
T 54700 44800 5 10 1 1 0 0 1
netname=AD14-E/\_NE\_
}
C 51200 41800 1 0 0 2650-1.sym
{
T 52600 48400 5 10 1 1 0 0 1
device=2650
T 52600 48200 5 10 1 1 0 0 1
footprint=DIP40
T 52600 48600 5 10 1 1 0 0 1
refdes=U1
}
N 51200 47200 50000 47200 4
{
T 50000 47200 5 10 1 1 0 0 1
netname=INTACK
}
N 40500 50200 40500 50400 4
N 40500 50400 40900 50400 4
N 41800 50400 42200 50400 4
C 41500 47300 1 90 0 busripper-1.sym
{
T 41100 47300 5 8 0 0 90 0 1
device=none
}
C 41500 47600 1 90 0 busripper-1.sym
{
T 41100 47600 5 8 0 0 90 0 1
device=none
}
C 41500 47900 1 90 0 busripper-1.sym
{
T 41100 47900 5 8 0 0 90 0 1
device=none
}
C 41500 48200 1 90 0 busripper-1.sym
{
T 41100 48200 5 8 0 0 90 0 1
device=none
}
C 46800 47600 1 0 0 busripper-1.sym
{
T 46800 48000 5 8 0 0 0 0 1
device=none
}
C 46800 47900 1 0 0 busripper-1.sym
{
T 46800 48300 5 8 0 0 0 0 1
device=none
}
C 46800 48200 1 0 0 busripper-1.sym
{
T 46800 48600 5 8 0 0 0 0 1
device=none
}
C 50700 42200 1 0 0 gnd-1.sym
N 50800 42500 50800 42700 4
N 44300 50400 43100 50400 4
{
T 43600 50400 5 10 1 1 0 0 1
netname=SENSE
}
T 54700 42700 9 10 1 0 0 0 1
NC
T 54700 43300 9 10 1 0 0 0 1
NC
N 46600 47300 45400 47300 4
{
T 45500 47300 5 10 1 1 0 0 1
netname=FLAG
}
N 46800 47600 45400 47600 4
{
T 45500 47600 5 10 1 1 0 0 1
netname=AD13-D/\_C\_
}
N 46800 47900 45400 47900 4
{
T 45500 47900 5 10 1 1 0 0 1
netname=AD11
}
N 46800 48200 45400 48200 4
{
T 45500 48200 5 10 1 1 0 0 1
netname=AD9
}
N 46800 46100 45400 46100 4
{
T 45500 46100 5 10 1 1 0 0 1
netname=AD0
}
N 46800 46400 45400 46400 4
{
T 45500 46400 5 10 1 1 0 0 1
netname=AD2
}
N 46800 46700 45400 46700 4
{
T 45500 46700 5 10 1 1 0 0 1
netname=AD4
}
N 46800 47000 45400 47000 4
{
T 45500 47000 5 10 1 1 0 0 1
netname=AD6
}
N 41500 46100 42900 46100 4
{
T 42300 46100 5 10 1 1 0 0 1
netname=AD1
}
N 41500 46400 42900 46400 4
{
T 42300 46400 5 10 1 1 0 0 1
netname=AD3
}
N 41500 46700 42900 46700 4
{
T 42300 46700 5 10 1 1 0 0 1
netname=AD5
}
N 41500 47000 42900 47000 4
{
T 42300 47000 5 10 1 1 0 0 1
netname=AD7
}
N 41500 47300 42900 47300 4
{
T 41800 47300 5 10 1 1 0 0 1
netname=AD14-E/\_NE\_
}
N 41500 47600 42900 47600 4
{
T 42300 47600 5 10 1 1 0 0 1
netname=AD12
}
N 41500 47900 42900 47900 4
{
T 42300 47900 5 10 1 1 0 0 1
netname=AD10
}
N 41500 48200 42900 48200 4
{
T 42300 48200 5 10 1 1 0 0 1
netname=AD8
}
C 41500 47000 1 90 0 busripper-1.sym
{
T 41100 47000 5 8 0 0 90 0 1
device=none
}
