v 20130925 2
P 0 1500 300 1500 1 0 0
{
T 0 1500 5 10 0 0 0 0 1
pintype=in
T 0 1500 5 10 0 0 0 0 1
pinseq=1
T 355 1495 5 10 1 1 0 0 1
pinlabel=D0
T 205 1545 5 10 1 1 0 6 1
pinnumber=1
}
P 1300 3700 1300 3400 1 0 0
{
T 1300 3700 5 10 0 0 90 0 1
pintype=pwr
T 1300 3700 5 10 0 0 90 0 1
pinseq=5
T 1300 3345 5 10 1 1 90 6 1
pinlabel=VSS_
T 1250 3495 5 10 1 1 90 0 1
pinnumber=5
}
B 300 400 2000 3000 3 0 0 0 -1 -1 0 -1 -1 -1 -1 -1
P 2600 1500 2300 1500 1 0 0
{
T 2600 1500 5 10 0 0 0 6 1
pintype=in
T 2245 1495 5 10 1 1 0 6 1
pinlabel=CMRAM1
T 2395 1545 5 10 1 1 0 0 1
pinnumber=15
T 2600 1500 5 10 0 0 0 6 1
pinseq=15
}
P 0 600 300 600 1 0 0
{
T 0 600 5 10 0 0 0 6 1
pintype=out
T 0 600 5 10 0 0 0 6 1
pinseq=4
T 355 595 5 10 1 1 0 0 1
pinlabel=D3
T 205 645 5 10 1 1 0 6 1
pinnumber=4
}
P 1300 100 1300 400 1 0 0
{
T 1300 100 5 10 0 0 270 0 1
pintype=pwr
T 1300 100 5 10 0 0 270 0 1
pinseq=12
T 1300 455 5 10 1 1 90 0 1
pinlabel=VDD_
T 1250 305 5 10 1 1 90 6 1
pinnumber=12
}
P 2600 2400 2300 2400 1 0 0
{
T 2600 2400 5 10 0 0 0 0 1
pintype=out
T 2600 2400 5 10 0 0 0 0 1
pinseq=11
T 2245 2395 5 10 1 1 0 6 1
pinlabel=CMROM
T 2395 2445 5 10 1 1 0 0 1
pinnumber=11
}
P 0 2100 300 2100 1 0 0
{
T 0 2100 5 10 0 0 0 6 1
pintype=out
T 0 2100 5 10 0 0 0 6 1
pinseq=10
T 355 2095 5 10 1 1 0 0 1
pinlabel=TEST
T 205 2145 5 10 1 1 0 6 1
pinnumber=10
}
P 0 2400 300 2400 1 0 0
{
T 0 2400 5 10 0 0 0 6 1
pintype=out
T 0 2400 5 10 0 0 0 6 1
pinseq=9
T 355 2395 5 10 1 1 0 0 1
pinlabel=RESET
T 205 2445 5 10 1 1 0 6 1
pinnumber=9
}
P 2600 3000 2300 3000 1 0 0
{
T 2600 3000 5 10 0 0 0 0 1
pintype=out
T 2600 3000 5 10 0 0 0 0 1
pinseq=8
T 2245 2995 5 10 1 1 0 6 1
pinlabel=SYNC
T 2295 3045 5 10 1 1 0 0 1
pinnumber=8
}
P 0 2700 300 2700 1 0 0
{
T 0 2700 5 10 0 0 0 6 1
pintype=out
T 0 2700 5 10 0 0 0 6 1
pinseq=7
T 355 2695 5 10 1 1 0 0 1
pinlabel=PHI2
T 205 2745 5 10 1 1 0 6 1
pinnumber=7
}
P 0 3000 300 3000 1 0 0
{
T 0 3000 5 10 0 0 0 6 1
pintype=out
T 0 3000 5 10 0 0 0 6 1
pinseq=6
T 355 2995 5 10 1 1 0 0 1
pinlabel=PHI1
T 205 3045 5 10 1 1 0 6 1
pinnumber=6
}
T 1900 3500 8 10 1 1 0 0 1
device=4004
T 4700 4300 8 10 0 1 0 0 1
description=2650 MICROPROCESSOR
T 1800 200 8 10 1 1 0 0 1
footprint=DIP16
T 4700 4100 8 10 0 0 0 0 1
numslots=1
T 300 3500 8 10 1 1 0 0 1
refdes=U?
P 2600 1800 2300 1800 1 0 0
{
T 2600 1800 5 10 0 0 0 6 1
pintype=in
T 2245 1795 5 10 1 1 0 6 1
pinlabel=CMRAM0
T 2395 1845 5 10 1 1 0 0 1
pinnumber=16
T 2600 1800 5 10 0 0 0 6 1
pinseq=16
}
P 0 1200 300 1200 1 0 0
{
T 0 1200 5 10 0 0 0 6 1
pintype=out
T 0 1200 5 10 0 0 0 6 1
pinseq=2
T 355 1195 5 10 1 1 0 0 1
pinlabel=D1
T 205 1245 5 10 1 1 0 6 1
pinnumber=2
}
P 0 900 300 900 1 0 0
{
T 0 900 5 10 0 0 0 6 1
pintype=out
T 0 900 5 10 0 0 0 6 1
pinseq=3
T 355 895 5 10 1 1 0 0 1
pinlabel=D2
T 205 945 5 10 1 1 0 6 1
pinnumber=3
}
P 2600 1200 2300 1200 1 0 0
{
T 2600 1200 5 10 0 0 0 0 1
pintype=out
T 2600 1200 5 10 0 0 0 0 1
pinseq=14
T 2245 1195 5 10 1 1 0 6 1
pinlabel=CMRAM2
T 2395 1245 5 10 1 1 0 0 1
pinnumber=14
}
P 2600 900 2300 900 1 0 0
{
T 2600 900 5 10 0 0 0 0 1
pintype=out
T 2600 900 5 10 0 0 0 0 1
pinseq=13
T 2245 895 5 10 1 1 0 6 1
pinlabel=CMRAM3
T 2395 945 5 10 1 1 0 0 1
pinnumber=13
}
