v 20130925 2
C 39600 40000 0 0 0 title-C.sym
G 60500 41653 900 947 0 0 0
./symbols/osha-logo.svg
C 53000 48000 1 0 0 megahdr2x18-1.sym
{
T 53700 54300 5 10 1 1 0 0 1
device=MEGAHDR2X18
T 53700 54100 5 10 1 1 0 0 1
footprint=HEADER36_1
T 53700 54500 5 10 1 1 0 0 1
refdes=J1
}
C 52500 53800 1 0 0 5V-plus-1.sym
C 55600 53800 1 0 0 5V-plus-1.sym
C 52600 47800 1 0 0 gnd-1.sym
C 55700 47800 1 0 0 gnd-1.sym
N 55500 48400 55800 48400 4
N 55800 48400 55800 48100 4
N 52700 48100 52700 48400 4
N 52700 48400 53000 48400 4
N 52700 53800 52700 53500 4
N 52700 53500 53000 53500 4
N 55500 53500 55800 53500 4
N 55800 53500 55800 53800 4
N 53000 53200 51900 53200 4
{
T 52000 53200 5 10 1 1 0 0 1
netname=AD0_5V
}
N 53000 52900 51900 52900 4
{
T 52000 52900 5 10 1 1 0 0 1
netname=AD2_5V
}
N 53000 52300 51900 52300 4
{
T 52000 52300 5 10 1 1 0 0 1
netname=AD6_5V
}
N 53000 52600 51900 52600 4
{
T 52000 52600 5 10 1 1 0 0 1
netname=AD4_5V
}
N 53000 51700 51900 51700 4
{
T 52000 51700 5 10 1 1 0 0 1
netname=AD13_5V
}
N 53000 51100 51900 51100 4
{
T 52000 51100 5 10 1 1 0 0 1
netname=AD9_5V
}
N 53000 51400 51900 51400 4
{
T 52000 51400 5 10 1 1 0 0 1
netname=AD11_5V
}
N 53000 50800 51900 50800 4
{
T 52000 50800 5 10 1 1 0 0 1
netname=PD7_5V
}
N 53000 50500 51900 50500 4
{
T 52000 50500 5 10 1 1 0 0 1
netname=PG1_5V
}
N 53000 49900 51900 49900 4
{
T 52000 49900 5 10 1 1 0 0 1
netname=D5_5V
}
N 53000 50200 51900 50200 4
{
T 52000 50200 5 10 1 1 0 0 1
netname=D7_5V
}
N 53000 49300 51900 49300 4
{
T 52000 49300 5 10 1 1 0 0 1
netname=D1_5V
}
N 53000 48700 51900 48700 4
{
T 52000 48700 5 10 1 1 0 0 1
netname=PB1_5V
}
N 53000 49000 51900 49000 4
{
T 52000 49000 5 10 1 1 0 0 1
netname=PB3_5V
}
N 53000 49600 51900 49600 4
{
T 52000 49600 5 10 1 1 0 0 1
netname=D3_5V
}
N 53000 52000 51900 52000 4
{
T 52000 52000 5 10 1 1 0 0 1
netname=AD15_5V
}
N 56700 52900 55500 52900 4
{
T 55800 52900 5 10 1 1 0 0 1
netname=AD3_5V
}
N 56700 52300 55500 52300 4
{
T 55800 52300 5 10 1 1 0 0 1
netname=AD7_5V
}
N 56700 52600 55500 52600 4
{
T 55800 52600 5 10 1 1 0 0 1
netname=AD5_5V
}
N 56700 51700 55500 51700 4
{
T 55800 51700 5 10 1 1 0 0 1
netname=AD12_5V
}
N 56700 51100 55500 51100 4
{
T 55800 51100 5 10 1 1 0 0 1
netname=AD8_5V
}
N 56700 51400 55500 51400 4
{
T 55800 51400 5 10 1 1 0 0 1
netname=AD10_5V
}
N 56700 50800 55500 50800 4
{
T 55800 50800 5 10 1 1 0 0 1
netname=PG2_5V
}
N 56700 50500 55500 50500 4
{
T 55800 50500 5 10 1 1 0 0 1
netname=PG0_5V
}
N 56700 49900 55500 49900 4
{
T 55800 49900 5 10 1 1 0 0 1
netname=D4_5V
}
N 56700 50200 55500 50200 4
{
T 55800 50200 5 10 1 1 0 0 1
netname=D6_5V
}
N 56700 49300 55500 49300 4
{
T 55800 49300 5 10 1 1 0 0 1
netname=D0_5V
}
N 56700 48700 55500 48700 4
{
T 55800 48700 5 10 1 1 0 0 1
netname=PB0_5V
}
N 56700 49000 55500 49000 4
{
T 55800 49000 5 10 1 1 0 0 1
netname=PB2_5V
}
N 56700 49600 55500 49600 4
{
T 55800 49600 5 10 1 1 0 0 1
netname=D2_5V
}
N 56700 52000 55500 52000 4
{
T 55800 52000 5 10 1 1 0 0 1
netname=AD14_5V
}
N 56700 53200 55500 53200 4
{
T 55800 53200 5 10 1 1 0 0 1
netname=AD1_5V
}
C 42800 46700 1 0 0 teensy35-1.sym
{
T 44400 46800 5 10 1 1 0 0 1
device=TEENSY35
T 44800 46600 5 10 1 1 0 0 1
footprint=DIP48
T 44000 55300 5 10 1 1 0 0 1
refdes=U1
}
C 45700 54900 1 0 0 5V-plus-1.sym
N 45600 54500 45900 54500 4
N 45900 54500 45900 54900 4
C 42400 54400 1 0 0 gnd-1.sym
N 42800 54500 42700 54500 4
N 42700 54500 42700 54800 4
N 42700 54800 42500 54800 4
N 42500 54800 42500 54700 4
N 42800 52700 42000 52700 4
{
T 42000 52700 5 10 1 1 0 0 1
netname=DATA7
}
N 46400 52700 45600 52700 4
{
T 45800 52700 5 10 1 1 0 0 1
netname=DATA5
}
N 42800 51800 42000 51800 4
{
T 42000 51800 5 10 1 1 0 0 1
netname=DATA3
}
N 46400 50900 45600 50900 4
{
T 45800 50900 5 10 1 1 0 0 1
netname=DATA1
}
N 46400 53000 45600 53000 4
{
T 45800 53000 5 10 1 1 0 0 1
netname=DATA6
}
N 42800 52400 42000 52400 4
{
T 42000 52400 5 10 1 1 0 0 1
netname=DATA4
}
N 42800 52100 42000 52100 4
{
T 42000 52100 5 10 1 1 0 0 1
netname=DATA2
}
N 42800 53600 42000 53600 4
{
T 42000 53600 5 10 1 1 0 0 1
netname=DATA0
}
N 46400 51200 45600 51200 4
{
T 45900 51200 5 10 1 1 0 0 1
netname=AD0
}
N 46400 53600 45600 53600 4
{
T 45900 53600 5 10 1 1 0 0 1
netname=AD2
}
N 42800 50900 42000 50900 4
{
T 42200 50900 5 10 1 1 0 0 1
netname=AD6
}
N 42800 51200 42000 51200 4
{
T 42200 51200 5 10 1 1 0 0 1
netname=AD4
}
N 42800 53000 42000 53000 4
{
T 42200 53000 5 10 1 1 0 0 1
netname=AD13
}
N 46400 48500 45600 48500 4
{
T 45900 48500 5 10 1 1 0 0 1
netname=AD9
}
N 46400 49100 45600 49100 4
{
T 45900 49100 5 10 1 1 0 0 1
netname=AD11
}
N 42800 49100 42000 49100 4
{
T 42200 49100 5 10 1 1 0 0 1
netname=AD15
}
N 42800 51500 42000 51500 4
{
T 42200 51500 5 10 1 1 0 0 1
netname=AD3
}
N 42800 50600 42000 50600 4
{
T 42200 50600 5 10 1 1 0 0 1
netname=AD7
}
N 42800 53300 42000 53300 4
{
T 42200 53300 5 10 1 1 0 0 1
netname=AD12
}
N 46400 48200 45600 48200 4
{
T 45900 48200 5 10 1 1 0 0 1
netname=AD8
}
N 46400 48800 45600 48800 4
{
T 45900 48800 5 10 1 1 0 0 1
netname=AD10
}
N 42800 49400 42000 49400 4
{
T 42200 49400 5 10 1 1 0 0 1
netname=AD14
}
N 46400 53300 45600 53300 4
{
T 45900 53300 5 10 1 1 0 0 1
netname=AD1
}
N 45600 52400 46400 52400 4
{
T 45800 52400 5 10 1 1 0 0 1
netname=SCL
}
N 45600 52100 46400 52100 4
{
T 45800 52100 5 10 1 1 0 0 1
netname=SDA
}
N 46400 51500 45600 51500 4
{
T 46000 51500 5 10 1 1 0 0 1
netname=PG1
}
N 46400 51800 45600 51800 4
{
T 46000 51800 5 10 1 1 0 0 1
netname=PG2
}
N 42800 50000 42000 50000 4
{
T 42100 50000 5 10 1 1 0 0 1
netname=PD7
}
N 41800 53900 42800 53900 4
{
T 41900 53900 5 10 1 1 0 0 1
netname=MISO_TX1
}
N 41800 54200 42800 54200 4
{
T 41900 54200 5 10 1 1 0 0 1
netname=MOSI_RX1
}
N 42000 47900 42800 47900 4
{
T 42200 47900 5 10 1 1 0 0 1
netname=SS
}
N 42000 47600 42800 47600 4
{
T 42200 47600 5 10 1 1 0 0 1
netname=SCK
}
C 41400 50400 1 0 0 3.3V-plus-1.sym
N 41600 50400 41600 50300 4
N 41600 50300 42800 50300 4
C 46000 54500 1 0 0 3.3V-plus-1.sym
C 45800 54100 1 0 0 gnd-1.sym
N 45600 54200 45700 54200 4
N 45700 54200 45700 54400 4
N 45700 54400 45900 54400 4
N 45600 53900 46200 53900 4
N 46200 53900 46200 54500 4
N 42800 48800 42000 48800 4
{
T 42100 48800 5 10 1 1 0 0 1
netname=PB0
}
N 46400 49400 45600 49400 4
{
T 46000 49400 5 10 1 1 0 0 1
netname=PB1
}
N 42800 48500 42000 48500 4
{
T 42100 48500 5 10 1 1 0 0 1
netname=PB2
}
N 42800 48200 42000 48200 4
{
T 42100 48200 5 10 1 1 0 0 1
netname=PB3
}
N 42800 49700 42000 49700 4
{
T 42100 49700 5 10 1 1 0 0 1
netname=AD5
}
N 46400 50600 45600 50600 4
{
T 45900 50600 5 10 1 1 0 0 1
netname=PG0
}
N 45600 47900 46400 47900 4
{
T 45700 47900 5 10 1 1 0 0 1
netname=KBD_DAT
}
N 45600 47600 46400 47600 4
{
T 45700 47600 5 10 1 1 0 0 1
netname=KBD_INT
}
C 55600 43800 1 0 0 switch-pushbutton-no-1-4p.sym
{
T 56000 44500 5 10 0 0 0 0 1
device=SWITCH_PUSHBUTTON_NO
T 56000 44900 5 10 0 0 0 0 1
footprint=TYCO_fsm2j.fp
T 56000 44300 5 10 1 1 0 0 1
refdes=SW1
}
C 58600 43800 1 0 0 switch-pushbutton-no-1-4p.sym
{
T 59000 44500 5 10 0 0 0 0 1
device=SWITCH_PUSHBUTTON_NO
T 59000 44900 5 10 0 0 0 0 1
footprint=TYCO_fsm2j.fp
T 59000 44300 5 10 1 1 0 0 1
refdes=SW2
}
N 45600 50000 46400 50000 4
{
T 46100 50000 5 10 1 1 0 0 1
netname=S2
}
N 45600 49700 46400 49700 4
{
T 46100 49700 5 10 1 1 0 0 1
netname=S1
}
C 58400 43300 1 0 0 gnd-1.sym
N 58500 43600 58500 44000 4
N 58500 43800 58600 43800 4
N 58500 44000 58600 44000 4
N 55500 43600 55500 44000 4
N 55500 43800 55600 43800 4
N 55500 44000 55600 44000 4
C 55400 43300 1 0 0 gnd-1.sym
N 59600 44000 59700 44000 4
N 59700 43800 59700 44900 4
N 59600 43800 59700 43800 4
N 56600 44000 56700 44000 4
N 56700 43800 56700 44900 4
N 56600 43800 56700 43800 4
C 56800 44900 1 90 0 resistor-1.sym
{
T 56400 45200 5 10 0 0 90 0 1
device=RESISTOR
T 56500 45100 5 10 1 1 90 0 1
refdes=R6
T 57000 44900 5 10 1 1 90 0 1
value=4.7k
T 57000 45400 5 10 1 1 90 0 1
footprint=0805
}
N 56700 45800 56700 45900 4
C 59800 44900 1 90 0 resistor-1.sym
{
T 59400 45200 5 10 0 0 90 0 1
device=RESISTOR
T 59500 45100 5 10 1 1 90 0 1
refdes=R7
T 60000 44900 5 10 1 1 90 0 1
value=4.7k
T 60000 45400 5 10 1 1 90 0 1
footprint=0805
}
N 59700 45800 59700 45900 4
C 56500 45900 1 0 0 3.3V-plus-1.sym
C 59500 45900 1 0 0 3.3V-plus-1.sym
T 54600 40700 9 16 1 0 0 0 1
RETROSHIELD TO TEENSY 3.5 ADAPTER
T 54600 41000 9 10 1 0 0 0 2
Released under the Creative Commons Attribution Share-Alike 4.0 License
https://creativecommons.org/licenses/by-sa/4.0/
T 58500 40100 9 10 1 0 0 0 1
ERTURK KOCALAR
T 58500 40400 9 10 1 0 0 0 1
REV 1 - 2019/08/26
T 55000 40100 9 10 1 0 0 0 1
1
T 56700 40100 9 10 1 0 0 0 1
1
T 55000 40400 9 10 1 0 0 0 1
TEENSY.SCH
T 52000 56200 9 18 1 0 0 0 1
SIMPLIFIED SCHEMATICS
T 43800 54200 9 6 1 0 0 0 1
MOSI1
T 43800 53900 9 6 1 0 0 0 1
MISO1
T 43800 47900 9 6 1 0 0 0 1
CS1
T 43800 47600 9 6 1 0 0 0 1
SCK1
T 44200 54200 9 6 1 0 0 0 1
RX1
T 44200 53900 9 6 1 0 0 0 1
TX1
T 44400 52400 9 6 1 0 0 0 1
SCL0
T 44400 52100 9 6 1 0 0 0 1
SDA0
T 57600 46800 9 10 1 0 0 0 1
User Buttons
N 59700 44300 60400 44300 4
{
T 60100 44300 5 10 1 1 0 0 1
netname=S2
}
N 56700 44300 57400 44300 4
{
T 57100 44300 5 10 1 1 0 0 1
netname=S1
}
L 48000 52000 50000 52000 3 0 0 0 -1 -1
L 50000 52500 50000 52000 3 0 0 0 -1 -1
L 50000 52500 50600 51400 3 0 0 0 -1 -1
L 50600 51400 50000 50500 3 0 0 0 -1 -1
L 50000 50500 50000 51000 3 0 0 0 -1 -1
L 50000 51000 48000 51000 3 0 0 0 -1 -1
T 48500 51300 9 10 1 0 0 0 2
3.3V <-> 5V
Level Shifters
L 48000 52000 48000 52500 3 0 0 0 -1 -1
L 48000 52500 47500 51500 3 0 0 0 -1 -1
L 47500 51500 48000 50500 3 0 0 0 -1 -1
L 48000 50500 48000 51000 3 0 0 0 -1 -1
T 43000 56300 9 10 1 0 0 0 1
Teensy 3.5 Port Assignments
T 40000 56300 9 10 1 0 0 0 1
RetroShield Signal Assignments
L 42800 56800 42800 55600 3 0 0 0 -1 -1
L 45600 56800 45600 55600 3 0 0 0 -1 -1
T 45900 56300 9 10 1 0 0 0 1
RetroShield Signal Assignments
C 45800 50200 1 0 0 gnd-1.sym
N 45700 50300 45700 50500 4
N 45700 50500 45900 50500 4
N 45600 50300 45700 50300 4
G 39900 40103 7100 3593 0 0 0
/home/erturkk/Documents/teensy_setup_1.png
G 47200 40132 6600 3568 0 0 0
/home/erturkk/Documents/teensy_setup2.png
T 40000 45600 9 18 1 0 0 0 1
Example 6502 GPIO definitions
G 39900 43898 9100 1502 0 0 0
/home/erturkk/Documents/teensy_setup3.png
